{
  "annotations": {
    "list": [
      {
        "builtIn": 1,
        "datasource": {
          "type": "datasource",
          "uid": "grafana"
        },
        "enable": false,
        "hide": false,
        "iconColor": "#e0752d",
        "limit": 100,
        "name": "PMM Annotations",
        "showIn": 0,
        "tags": [
          "pmm_annotation"
        ],
        "type": "tags"
      },
      {
        "builtIn": 1,
        "datasource": {
          "type": "datasource",
          "uid": "grafana"
        },
        "enable": true,
        "hide": true,
        "iconColor": "#6ed0e0",
        "limit": 100,
        "name": "Annotations & Alerts",
        "showIn": 0,
        "tags": [],
        "target": {
          "limit": 100,
          "matchAny": false,
          "tags": [],
          "type": "dashboard"
        },
        "type": "dashboard"
      }
    ]
  },
  "editable": true,
  "fiscalYearStartMonth": 0,
  "graphTooltip": 1,
  "id": 34,
  "iteration": 1669037238830,
  "links": [
    {
      "$$hashKey": "object:59",
      "icon": "dashboard",
      "includeVars": true,
      "keepTime": true,
      "tags": [
        "QAN"
      ],
      "targetBlank": false,
      "title": "Query Analytics",
      "type": "link",
      "url": "/graph/dashboard/db/_pmm-query-analytics"
    },
    {
      "$$hashKey": "object:60",
      "asDropdown": true,
      "includeVars": true,
      "keepTime": true,
      "tags": [
        "OS"
      ],
      "targetBlank": false,
      "title": "OS",
      "type": "dashboards"
    },
    {
      "$$hashKey": "object:61",
      "asDropdown": true,
      "includeVars": true,
      "keepTime": true,
      "tags": [
        "MySQL"
      ],
      "targetBlank": false,
      "title": "MySQL",
      "type": "dashboards"
    },
    {
      "$$hashKey": "object:62",
      "asDropdown": true,
      "includeVars": true,
      "keepTime": true,
      "tags": [
        "MongoDB"
      ],
      "targetBlank": false,
      "title": "MongoDB",
      "type": "dashboards"
    },
    {
      "$$hashKey": "object:63",
      "asDropdown": true,
      "includeVars": true,
      "keepTime": true,
      "tags": [
        "PostgreSQL"
      ],
      "targetBlank": false,
      "title": "PostgreSQL",
      "type": "dashboards"
    },
    {
      "$$hashKey": "object:64",
      "asDropdown": true,
      "includeVars": true,
      "keepTime": true,
      "tags": [
        "HA"
      ],
      "targetBlank": false,
      "title": "HA",
      "type": "dashboards"
    },
    {
      "$$hashKey": "object:65",
      "asDropdown": true,
      "includeVars": true,
      "keepTime": true,
      "tags": [
        "Cloud"
      ],
      "targetBlank": false,
      "title": "Cloud",
      "type": "dashboards"
    },
    {
      "$$hashKey": "object:66",
      "asDropdown": true,
      "includeVars": true,
      "keepTime": true,
      "tags": [
        "Insight"
      ],
      "targetBlank": false,
      "title": "Insight",
      "type": "dashboards"
    },
    {
      "$$hashKey": "object:67",
      "asDropdown": true,
      "includeVars": true,
      "keepTime": true,
      "tags": [
        "PMM"
      ],
      "targetBlank": false,
      "title": "PMM",
      "type": "dashboards"
    }
  ],
  "liveNow": false,
  "panels": [
    {
      "aliasColors": {},
      "bars": false,
      "dashLength": 10,
      "dashes": false,
      "datasource": {
        "type": "prometheus",
        "uid": "cFtQJpOMk"
      },
      "decimals": 0,
      "fill": 1,
      "fillGradient": 0,
      "gridPos": {
        "h": 8,
        "w": 12,
        "x": 0,
        "y": 0
      },
      "hiddenSeries": false,
      "id": 97,
      "legend": {
        "avg": false,
        "current": true,
        "max": false,
        "min": false,
        "show": true,
        "total": false,
        "values": true
      },
      "lines": true,
      "linewidth": 2,
      "links": [],
      "maxDataPoints": 100,
      "nullPointMode": "null",
      "options": {
        "alertThreshold": true
      },
      "percentage": false,
      "pluginVersion": "9.0.2",
      "pointradius": 2,
      "points": false,
      "renderer": "flot",
      "seriesOverrides": [],
      "spaceLength": 10,
      "stack": false,
      "steppedLine": false,
      "targets": [
        {
          "datasource": {
            "type": "prometheus",
            "uid": "cFtQJpOMk"
          },
          "exemplar": true,
          "expr": "mongodb_mongod_replset_member_optime_date{set=\"mongo-central-logs\", state=\"PRIMARY\",job=\"GCP_Mongo_Instance\"} - ON (instance) mongodb_mongod_replset_member_optime_date{set=\"mongo-central-logs\", state=\"SECONDARY\",job=\"GCP_Mongo_Instance\"}",
          "format": "time_series",
          "hide": false,
          "interval": "",
          "legendFormat": "",
          "refId": "A"
        }
      ],
      "thresholds": [],
      "timeRegions": [],
      "title": "Mongo Log Storefront  Replication Lag",
      "tooltip": {
        "shared": true,
        "sort": 2,
        "value_type": "individual"
      },
      "type": "graph",
      "xaxis": {
        "mode": "time",
        "show": true,
        "values": []
      },
      "yaxes": [
        {
          "$$hashKey": "object:965",
          "decimals": 0,
          "format": "none",
          "logBase": 1,
          "show": true
        },
        {
          "$$hashKey": "object:966",
          "format": "short",
          "logBase": 1,
          "show": true
        }
      ],
      "yaxis": {
        "align": false
      }
    },
    {
      "aliasColors": {},
      "bars": false,
      "dashLength": 10,
      "dashes": false,
      "datasource": {
        "type": "prometheus",
        "uid": "cFtQJpOMk"
      },
      "decimals": 0,
      "fill": 1,
      "fillGradient": 0,
      "gridPos": {
        "h": 8,
        "w": 12,
        "x": 12,
        "y": 0
      },
      "hiddenSeries": false,
      "id": 114,
      "legend": {
        "avg": false,
        "current": true,
        "max": false,
        "min": false,
        "show": true,
        "total": false,
        "values": true
      },
      "lines": true,
      "linewidth": 2,
      "links": [],
      "maxDataPoints": 100,
      "nullPointMode": "null",
      "options": {
        "alertThreshold": true
      },
      "percentage": false,
      "pluginVersion": "9.0.2",
      "pointradius": 2,
      "points": false,
      "renderer": "flot",
      "seriesOverrides": [],
      "spaceLength": 10,
      "stack": false,
      "steppedLine": false,
      "targets": [
        {
          "datasource": {
            "type": "prometheus",
            "uid": "cFtQJpOMk"
          },
          "exemplar": true,
          "expr": "mongodb_mongod_replset_member_optime_date{set=\"mongo-beauty\", state=\"PRIMARY\",job=\"GCP_Mongo_Instance\"} - ON (instance) mongodb_mongod_replset_member_optime_date{set=\"mongo-beauty\", state=\"SECONDARY\",name=\"mongo-beauty-profile-slave1.internal.purplle.com:27017\",job=\"GCP_Mongo_Instance\"}",
          "format": "time_series",
          "hide": false,
          "interval": "",
          "legendFormat": "",
          "refId": "A"
        }
      ],
      "thresholds": [],
      "timeRegions": [],
      "title": " Mongo Beauty Profile  Replication Lag",
      "tooltip": {
        "shared": true,
        "sort": 2,
        "value_type": "individual"
      },
      "type": "graph",
      "xaxis": {
        "mode": "time",
        "show": true,
        "values": []
      },
      "yaxes": [
        {
          "$$hashKey": "object:965",
          "decimals": 0,
          "format": "none",
          "logBase": 1,
          "show": true
        },
        {
          "$$hashKey": "object:966",
          "format": "short",
          "logBase": 1,
          "show": true
        }
      ],
      "yaxis": {
        "align": false
      }
    },
    {
      "aliasColors": {},
      "bars": false,
      "dashLength": 10,
      "dashes": false,
      "datasource": {
        "type": "prometheus",
        "uid": "cFtQJpOMk"
      },
      "description": "Keep in mind the hard limit on the maximum number of connections set by your distribution.",
      "editable": true,
      "error": false,
      "fill": 2,
      "fillGradient": 0,
      "grid": {
        "leftLogBase": 1,
        "leftMin": 0,
        "rightLogBase": 1
      },
      "gridPos": {
        "h": 9,
        "w": 24,
        "x": 0,
        "y": 8
      },
      "height": "250px",
      "hiddenSeries": false,
      "id": 38,
      "legend": {
        "alignAsTable": true,
        "avg": true,
        "current": true,
        "max": true,
        "min": true,
        "rightSide": false,
        "show": true,
        "sort": "current",
        "sortDesc": false,
        "total": false,
        "values": true
      },
      "lines": true,
      "linewidth": 2,
      "links": [],
      "nullPointMode": "null",
      "options": {
        "alertThreshold": true
      },
      "percentage": false,
      "pluginVersion": "9.0.2",
      "pointradius": 5,
      "points": false,
      "renderer": "flot",
      "seriesOverrides": [],
      "spaceLength": 10,
      "stack": false,
      "steppedLine": false,
      "targets": [
        {
          "datasource": {
            "type": "prometheus",
            "uid": "cFtQJpOMk"
          },
          "expr": "mongodb_connections{instance=~\"$host\", state=\"current\"}",
          "format": "time_series",
          "hide": false,
          "interval": "$interval",
          "intervalFactor": 1,
          "legendFormat": "Connections",
          "refId": "J",
          "step": 300
        }
      ],
      "thresholds": [],
      "timeRegions": [],
      "title": "Connections to $host",
      "tooltip": {
        "msResolution": false,
        "shared": true,
        "sort": 0,
        "value_type": "cumulative"
      },
      "type": "graph",
      "x-axis": true,
      "xaxis": {
        "mode": "time",
        "show": true,
        "values": []
      },
      "y-axis": true,
      "y_formats": [
        "short",
        "short"
      ],
      "yaxes": [
        {
          "$$hashKey": "object:1311",
          "format": "short",
          "label": "",
          "logBase": 1,
          "min": 0,
          "show": true
        },
        {
          "$$hashKey": "object:1312",
          "format": "short",
          "logBase": 1,
          "show": true
        }
      ],
      "yaxis": {
        "align": false
      }
    },
    {
      "collapsed": false,
      "datasource": {
        "type": "prometheus",
        "uid": "cFtQJpOMk"
      },
      "gridPos": {
        "h": 1,
        "w": 24,
        "x": 0,
        "y": 17
      },
      "id": 95,
      "panels": [],
      "repeat": "host",
      "targets": [
        {
          "datasource": {
            "type": "prometheus",
            "uid": "cFtQJpOMk"
          },
          "refId": "A"
        }
      ],
      "title": "MongoDB Metrics for $host",
      "type": "row"
    },
    {
      "aliasColors": {},
      "bars": false,
      "dashLength": 10,
      "dashes": false,
      "datasource": {
        "type": "prometheus",
        "uid": "cFtQJpOMk"
      },
      "decimals": 1,
      "description": "Shows how many times a command is executed per second on average during the selected interval.",
      "editable": true,
      "error": false,
      "fill": 2,
      "fillGradient": 0,
      "grid": {
        "leftLogBase": 1,
        "leftMin": 0,
        "rightLogBase": 1
      },
      "gridPos": {
        "h": 7,
        "w": 24,
        "x": 0,
        "y": 18
      },
      "hiddenSeries": false,
      "id": 15,
      "legend": {
        "alignAsTable": true,
        "avg": true,
        "current": false,
        "hideZero": true,
        "max": true,
        "min": true,
        "rightSide": true,
        "show": true,
        "sort": "avg",
        "sortDesc": true,
        "total": false,
        "values": true
      },
      "lines": true,
      "linewidth": 2,
      "links": [],
      "nullPointMode": "null",
      "options": {
        "alertThreshold": true
      },
      "percentage": false,
      "pluginVersion": "9.0.2",
      "pointradius": 5,
      "points": false,
      "renderer": "flot",
      "seriesOverrides": [],
      "spaceLength": 10,
      "stack": false,
      "steppedLine": false,
      "targets": [
        {
          "datasource": {
            "type": "prometheus",
            "uid": "cFtQJpOMk"
          },
          "expr": "rate(mongodb_mongod_op_counters_total{instance=~\"$host\", type!=\"command\"}[$interval]) or \nirate(mongodb_mongod_op_counters_total{instance=~\"$host\", type!=\"command\"}[5m]) or \nrate(mongodb_mongos_op_counters_total{instance=~\"$host\", type!=\"command\"}[$interval]) or \nirate(mongodb_mongos_op_counters_total{instance=~\"$host\", type!=\"command\"}[5m])",
          "format": "time_series",
          "hide": false,
          "interval": "$interval",
          "intervalFactor": 1,
          "legendFormat": "{{type}}",
          "refId": "J",
          "step": 300
        },
        {
          "datasource": {
            "type": "prometheus",
            "uid": "cFtQJpOMk"
          },
          "expr": "rate(mongodb_mongod_op_counters_repl_total{instance=~\"$host\", type!~\"(command|query|getmore)\"}[$interval]) or \nirate(mongodb_mongod_op_counters_repl_total{instance=~\"$host\", type!~\"(command|query|getmore)\"}[5m]) or\nrate(mongodb_mongos_op_counters_repl_total{instance=~\"$host\", type!~\"(command|query|getmore)\"}[$interval]) or \nirate(mongodb_mongos_op_counters_repl_total{instance=~\"$host\", type!~\"(command|query|getmore)\"}[5m])",
          "format": "time_series",
          "hide": false,
          "interval": "$interval",
          "intervalFactor": 1,
          "legendFormat": "repl_{{type}}",
          "refId": "A",
          "step": 300
        },
        {
          "datasource": {
            "type": "prometheus",
            "uid": "cFtQJpOMk"
          },
          "expr": "rate(mongodb_mongod_metrics_ttl_deleted_documents_total{instance=~\"$host\"}[$interval]) or \nirate(mongodb_mongod_metrics_ttl_deleted_documents_total{instance=~\"$host\"}[5m]) or\nrate(mongodb_mongos_metrics_ttl_deleted_documents_total{instance=~\"$host\"}[$interval]) or \nirate(mongodb_mongos_metrics_ttl_deleted_documents_total{instance=~\"$host\"}[5m])",
          "format": "time_series",
          "hide": false,
          "interval": "$interval",
          "intervalFactor": 1,
          "legendFormat": "ttl_delete",
          "refId": "B",
          "step": 300
        }
      ],
      "thresholds": [],
      "timeRegions": [],
      "title": "Command Operations",
      "tooltip": {
        "msResolution": false,
        "shared": true,
        "sort": 0,
        "value_type": "individual"
      },
      "type": "graph",
      "x-axis": true,
      "xaxis": {
        "mode": "time",
        "show": true,
        "values": []
      },
      "y-axis": true,
      "y_formats": [
        "short",
        "short"
      ],
      "yaxes": [
        {
          "format": "ops",
          "label": "",
          "logBase": 1,
          "min": 0,
          "show": true
        },
        {
          "format": "short",
          "logBase": 1,
          "show": true
        }
      ],
      "yaxis": {
        "align": false
      }
    },
    {
      "aliasColors": {},
      "bars": false,
      "dashLength": 10,
      "dashes": false,
      "datasource": {
        "type": "prometheus",
        "uid": "cFtQJpOMk"
      },
      "description": "When used in combination with 'Command Operations', this graph can help identify write amplification. For example, when one insert or update command actually inserts or updates hundreds, thousands, or even millions of documents.",
      "editable": true,
      "error": false,
      "fill": 2,
      "fillGradient": 0,
      "grid": {
        "leftLogBase": 1,
        "leftMin": 0,
        "rightLogBase": 1
      },
      "gridPos": {
        "h": 7,
        "w": 12,
        "x": 0,
        "y": 25
      },
      "height": "250px",
      "hiddenSeries": false,
      "id": 36,
      "legend": {
        "alignAsTable": true,
        "avg": true,
        "current": false,
        "hideZero": true,
        "max": true,
        "min": true,
        "show": true,
        "sort": "avg",
        "sortDesc": true,
        "total": false,
        "values": true
      },
      "lines": true,
      "linewidth": 2,
      "links": [],
      "nullPointMode": "null",
      "options": {
        "alertThreshold": true
      },
      "percentage": false,
      "pluginVersion": "8.1.2",
      "pointradius": 5,
      "points": false,
      "renderer": "flot",
      "seriesOverrides": [],
      "spaceLength": 10,
      "stack": false,
      "steppedLine": false,
      "targets": [
        {
          "datasource": {
            "type": "prometheus",
            "uid": "cFtQJpOMk"
          },
          "expr": "rate(mongodb_mongod_metrics_document_total{instance=~\"$host\"}[$interval]) or \nirate(mongodb_mongod_metrics_document_total{instance=~\"$host\"}[5m])",
          "format": "time_series",
          "hide": false,
          "interval": "$interval",
          "intervalFactor": 1,
          "legendFormat": "{{state}}",
          "refId": "J",
          "step": 300
        }
      ],
      "thresholds": [],
      "timeRegions": [],
      "title": "Document Operations",
      "tooltip": {
        "msResolution": false,
        "shared": true,
        "sort": 0,
        "value_type": "cumulative"
      },
      "type": "graph",
      "x-axis": true,
      "xaxis": {
        "mode": "time",
        "show": true,
        "values": []
      },
      "y-axis": true,
      "y_formats": [
        "short",
        "short"
      ],
      "yaxes": [
        {
          "format": "ops",
          "label": "",
          "logBase": 1,
          "min": 0,
          "show": true
        },
        {
          "format": "short",
          "logBase": 1,
          "show": true
        }
      ],
      "yaxis": {
        "align": false
      }
    },
    {
      "aliasColors": {},
      "bars": false,
      "dashLength": 10,
      "dashes": false,
      "datasource": {
        "type": "prometheus",
        "uid": "cFtQJpOMk"
      },
      "decimals": 2,
      "editable": true,
      "error": false,
      "fill": 2,
      "fillGradient": 0,
      "grid": {
        "leftLogBase": 1,
        "leftMin": 0,
        "rightLogBase": 1
      },
      "gridPos": {
        "h": 7,
        "w": 12,
        "x": 12,
        "y": 25
      },
      "height": "250px",
      "hiddenSeries": false,
      "id": 63,
      "legend": {
        "alignAsTable": true,
        "avg": true,
        "current": false,
        "max": true,
        "min": true,
        "rightSide": false,
        "show": true,
        "sort": "avg",
        "sortDesc": true,
        "total": false,
        "values": true
      },
      "lines": true,
      "linewidth": 2,
      "links": [],
      "nullPointMode": "null",
      "options": {
        "alertThreshold": true
      },
      "percentage": true,
      "pluginVersion": "8.1.2",
      "pointradius": 5,
      "points": false,
      "renderer": "flot",
      "seriesOverrides": [],
      "spaceLength": 10,
      "stack": false,
      "steppedLine": false,
      "targets": [
        {
          "datasource": {
            "type": "prometheus",
            "uid": "cFtQJpOMk"
          },
          "expr": "sum(rate(mongodb_mongod_metrics_document_total{instance=~\"$host\", state=\"returned\"}[$interval]))/\nsum(rate(mongodb_mongod_metrics_query_executor_total{instance=~\"$host\", state=\"scanned_objects\"}[$interval])) \nor\nsum(irate(mongodb_mongod_metrics_document_total{instance=~\"$host\", state=\"returned\"}[5m]))/\nsum(irate(mongodb_mongod_metrics_query_executor_total{instance=~\"$host\", state=\"scanned_objects\"}[5m]))",
          "format": "time_series",
          "hide": false,
          "interval": "$interval",
          "intervalFactor": 1,
          "legendFormat": "Document",
          "refId": "J",
          "step": 300
        },
        {
          "datasource": {
            "type": "prometheus",
            "uid": "cFtQJpOMk"
          },
          "expr": "(sum(rate(mongodb_mongod_metrics_query_executor_total{instance=~\"$host\", state=\"scanned\"}[$interval]))/\nsum(rate(mongodb_mongod_metrics_query_executor_total{instance=~\"$host\", state=\"scanned_objects\"}[$interval])) \nor\nsum(irate(mongodb_mongod_metrics_query_executor_total{instance=~\"$host\", state=\"scanned\"}[5m]))/\nsum(irate(mongodb_mongod_metrics_query_executor_total{instance=~\"$host\", state=\"scanned_objects\"}[5m])))",
          "format": "time_series",
          "hide": false,
          "interval": "$interval",
          "intervalFactor": 1,
          "legendFormat": "Index",
          "refId": "A",
          "step": 300
        }
      ],
      "thresholds": [],
      "timeRegions": [],
      "title": "Query Efficiency",
      "tooltip": {
        "msResolution": false,
        "shared": true,
        "sort": 0,
        "value_type": "cumulative"
      },
      "type": "graph",
      "x-axis": true,
      "xaxis": {
        "mode": "time",
        "show": true,
        "values": []
      },
      "y-axis": true,
      "y_formats": [
        "short",
        "short"
      ],
      "yaxes": [
        {
          "$$hashKey": "object:158",
          "format": "percent",
          "label": "",
          "logBase": 1,
          "min": 0,
          "show": true
        },
        {
          "$$hashKey": "object:159",
          "format": "none",
          "logBase": 1,
          "show": false
        }
      ],
      "yaxis": {
        "align": false
      }
    },
    {
      "aliasColors": {},
      "bars": false,
      "dashLength": 10,
      "dashes": false,
      "datasource": {
        "type": "prometheus",
        "uid": "cFtQJpOMk"
      },
      "description": "This is useful for write-heavy workloads to understand how long it takes to verify writes and how many concurrent writes are occurring.",
      "editable": true,
      "error": false,
      "fill": 2,
      "fillGradient": 0,
      "grid": {
        "leftLogBase": 1,
        "leftMin": 0,
        "rightLogBase": 1
      },
      "gridPos": {
        "h": 7,
        "w": 12,
        "x": 0,
        "y": 32
      },
      "height": "250px",
      "hiddenSeries": false,
      "id": 62,
      "legend": {
        "alignAsTable": true,
        "avg": true,
        "current": false,
        "hideZero": true,
        "max": true,
        "min": true,
        "show": true,
        "sort": "avg",
        "sortDesc": true,
        "total": false,
        "values": true
      },
      "lines": true,
      "linewidth": 2,
      "links": [],
      "nullPointMode": "null",
      "options": {
        "alertThreshold": true
      },
      "percentage": false,
      "pluginVersion": "8.1.2",
      "pointradius": 5,
      "points": false,
      "renderer": "flot",
      "seriesOverrides": [],
      "spaceLength": 10,
      "stack": false,
      "steppedLine": false,
      "targets": [
        {
          "datasource": {
            "type": "prometheus",
            "uid": "cFtQJpOMk"
          },
          "expr": "rate(mongodb_mongod_metrics_get_last_error_wtime_num_total{instance=~\"$host\"}[$interval]) or \nirate(mongodb_mongod_metrics_get_last_error_wtime_num_total{instance=~\"$host\"}[5m]) or\nrate(mongodb_mongos_metrics_get_last_error_wtime_num_total{instance=~\"$host\"}[$interval]) or \nirate(mongodb_mongos_metrics_get_last_error_wtime_num_total{instance=~\"$host\"}[5m])",
          "format": "time_series",
          "hide": false,
          "interval": "$interval",
          "intervalFactor": 1,
          "legendFormat": "Total",
          "refId": "J",
          "step": 300
        },
        {
          "datasource": {
            "type": "prometheus",
            "uid": "cFtQJpOMk"
          },
          "expr": "rate(mongodb_mongod_metrics_get_last_error_wtimeouts_total{instance=~\"$host\"}[$interval]) or\nirate(mongodb_mongod_metrics_get_last_error_wtimeouts_total{instance=~\"$host\"}[5m]) or\nrate(mongodb_mongos_metrics_get_last_error_wtimeouts_total{instance=~\"$host\"}[$interval]) or\nirate(mongodb_mongos_metrics_get_last_error_wtimeouts_total{instance=~\"$host\"}[5m])",
          "format": "time_series",
          "hide": false,
          "interval": "$interval",
          "intervalFactor": 1,
          "legendFormat": "Timeouts",
          "refId": "A",
          "step": 300
        }
      ],
      "thresholds": [],
      "timeRegions": [],
      "title": "getLastError Write Operations",
      "tooltip": {
        "msResolution": false,
        "shared": true,
        "sort": 0,
        "value_type": "cumulative"
      },
      "type": "graph",
      "x-axis": true,
      "xaxis": {
        "mode": "time",
        "show": true,
        "values": []
      },
      "y-axis": true,
      "y_formats": [
        "short",
        "short"
      ],
      "yaxes": [
        {
          "format": "ops",
          "label": "",
          "logBase": 1,
          "min": 0,
          "show": true
        },
        {
          "format": "short",
          "logBase": 1,
          "show": true
        }
      ],
      "yaxis": {
        "align": false
      }
    },
    {
      "aliasColors": {},
      "bars": false,
      "dashLength": 10,
      "dashes": false,
      "datasource": {
        "type": "prometheus",
        "uid": "cFtQJpOMk"
      },
      "description": "This is useful for write-heavy workloads to understand how long it takes to verify writes and how many concurrent writes are occurring.",
      "editable": true,
      "error": false,
      "fill": 2,
      "fillGradient": 0,
      "grid": {
        "leftLogBase": 1,
        "leftMin": 0,
        "rightLogBase": 1
      },
      "gridPos": {
        "h": 7,
        "w": 12,
        "x": 12,
        "y": 32
      },
      "hiddenSeries": false,
      "id": 41,
      "legend": {
        "alignAsTable": true,
        "avg": true,
        "current": false,
        "max": true,
        "min": true,
        "show": true,
        "sort": "avg",
        "sortDesc": true,
        "total": false,
        "values": true
      },
      "lines": true,
      "linewidth": 2,
      "links": [],
      "nullPointMode": "null",
      "options": {
        "alertThreshold": true
      },
      "percentage": false,
      "pluginVersion": "8.1.2",
      "pointradius": 5,
      "points": false,
      "renderer": "flot",
      "seriesOverrides": [],
      "spaceLength": 10,
      "stack": false,
      "steppedLine": false,
      "targets": [
        {
          "datasource": {
            "type": "prometheus",
            "uid": "cFtQJpOMk"
          },
          "expr": "rate(mongodb_mongod_metrics_get_last_error_wtime_total_milliseconds{instance=~\"$host\"}[$interval]) or \nirate(mongodb_mongod_metrics_get_last_error_wtime_total_milliseconds{instance=~\"$host\"}[5m]) or\nrate(mongodb_mongos_metrics_get_last_error_wtime_total_milliseconds{instance=~\"$host\"}[$interval]) or \nirate(mongodb_mongos_metrics_get_last_error_wtime_total_milliseconds{instance=~\"$host\"}[5m])",
          "format": "time_series",
          "hide": false,
          "interval": "$interval",
          "intervalFactor": 1,
          "legendFormat": "Write Wait Time",
          "refId": "J",
          "step": 300
        }
      ],
      "thresholds": [],
      "timeRegions": [],
      "title": "getLastError Write Time",
      "tooltip": {
        "msResolution": false,
        "shared": true,
        "sort": 0,
        "value_type": "cumulative"
      },
      "type": "graph",
      "x-axis": true,
      "xaxis": {
        "mode": "time",
        "show": true,
        "values": []
      },
      "y-axis": true,
      "y_formats": [
        "short",
        "short"
      ],
      "yaxes": [
        {
          "format": "ms",
          "label": "",
          "logBase": 1,
          "min": 0,
          "show": true
        },
        {
          "format": "short",
          "logBase": 1,
          "show": true
        }
      ],
      "yaxis": {
        "align": false
      }
    },
    {
      "collapsed": false,
      "datasource": {
        "type": "prometheus",
        "uid": "cFtQJpOMk"
      },
      "gridPos": {
        "h": 1,
        "w": 24,
        "x": 0,
        "y": 39
      },
      "id": 89,
      "panels": [],
      "repeat": "host",
      "targets": [
        {
          "datasource": {
            "type": "prometheus",
            "uid": "cFtQJpOMk"
          },
          "refId": "A"
        }
      ],
      "title": "Resource Metrics for $host",
      "type": "row"
    },
    {
      "aliasColors": {},
      "bars": false,
      "dashLength": 10,
      "dashes": false,
      "datasource": {
        "type": "prometheus",
        "uid": "cFtQJpOMk"
      },
      "fill": 1,
      "fillGradient": 0,
      "gridPos": {
        "h": 6,
        "w": 7,
        "x": 0,
        "y": 40
      },
      "hiddenSeries": false,
      "id": 91,
      "legend": {
        "alignAsTable": false,
        "avg": true,
        "current": true,
        "hideEmpty": false,
        "hideZero": false,
        "max": false,
        "min": false,
        "rightSide": false,
        "show": true,
        "total": false,
        "values": true
      },
      "lines": true,
      "linewidth": 2,
      "links": [],
      "nullPointMode": "null",
      "options": {
        "alertThreshold": true
      },
      "percentage": false,
      "pluginVersion": "8.1.2",
      "pointradius": 5,
      "points": false,
      "renderer": "flot",
      "seriesOverrides": [],
      "spaceLength": 10,
      "stack": false,
      "steppedLine": false,
      "targets": [
        {
          "datasource": {
            "type": "prometheus",
            "uid": "cFtQJpOMk"
          },
          "expr": "sum(mongodb_memory{type=~\"mapped|mapped_with_journal|resident|virtual\",job=\"GCP_Mongo_Instance\",instance=\"$host\"}) by (instance)",
          "format": "time_series",
          "interval": "",
          "intervalFactor": 2,
          "legendFormat": "{{type}}",
          "refId": "A",
          "step": 240
        }
      ],
      "thresholds": [],
      "timeRegions": [],
      "title": "Memory",
      "tooltip": {
        "shared": false,
        "sort": 2,
        "value_type": "individual"
      },
      "type": "graph",
      "xaxis": {
        "mode": "time",
        "show": true,
        "values": [
          "total"
        ]
      },
      "yaxes": [
        {
          "$$hashKey": "object:1145",
          "format": "decmbytes",
          "label": "",
          "logBase": 1,
          "show": true
        },
        {
          "$$hashKey": "object:1146",
          "format": "short",
          "logBase": 1,
          "show": true
        }
      ],
      "yaxis": {
        "align": false
      }
    },
    {
      "aliasColors": {},
      "bars": false,
      "dashLength": 10,
      "dashes": false,
      "datasource": {
        "type": "prometheus",
        "uid": "cFtQJpOMk"
      },
      "fill": 1,
      "fillGradient": 0,
      "gridPos": {
        "h": 6,
        "w": 8,
        "x": 7,
        "y": 40
      },
      "hiddenSeries": false,
      "id": 93,
      "legend": {
        "avg": true,
        "current": true,
        "max": false,
        "min": false,
        "show": true,
        "total": false,
        "values": true
      },
      "lines": true,
      "linewidth": 2,
      "links": [],
      "nullPointMode": "null",
      "options": {
        "alertThreshold": true
      },
      "percentage": false,
      "pluginVersion": "8.1.2",
      "pointradius": 5,
      "points": false,
      "renderer": "flot",
      "seriesOverrides": [],
      "spaceLength": 10,
      "stack": false,
      "steppedLine": false,
      "targets": [
        {
          "datasource": {
            "type": "prometheus",
            "uid": "cFtQJpOMk"
          },
          "expr": "rate(mongodb_network_bytes_total{instance=~\"$host\"}[$__interval])",
          "format": "time_series",
          "interval": "",
          "intervalFactor": 2,
          "legendFormat": "{{state}}",
          "metric": "mongodb_metrics_operation_total",
          "refId": "A",
          "step": 240
        }
      ],
      "thresholds": [],
      "timeRegions": [],
      "title": "Network I/O",
      "tooltip": {
        "shared": true,
        "sort": 2,
        "value_type": "individual"
      },
      "type": "graph",
      "xaxis": {
        "mode": "time",
        "show": true,
        "values": []
      },
      "yaxes": [
        {
          "$$hashKey": "object:1228",
          "format": "decbytes",
          "logBase": 1,
          "show": true
        },
        {
          "$$hashKey": "object:1229",
          "format": "short",
          "logBase": 1,
          "show": true
        }
      ],
      "yaxis": {
        "align": false
      }
    },
    {
      "aliasColors": {},
      "bars": false,
      "dashLength": 10,
      "dashes": false,
      "datasource": {
        "type": "prometheus",
        "uid": "cFtQJpOMk"
      },
      "decimals": 2,
      "description": "",
      "editable": true,
      "error": false,
      "fill": 2,
      "fillGradient": 0,
      "grid": {},
      "gridPos": {
        "h": 6,
        "w": 9,
        "x": 15,
        "y": 40
      },
      "hiddenSeries": false,
      "id": 99,
      "legend": {
        "alignAsTable": true,
        "avg": true,
        "current": true,
        "max": true,
        "min": true,
        "rightSide": false,
        "show": true,
        "sort": "avg",
        "sortDesc": true,
        "total": false,
        "values": true
      },
      "lines": true,
      "linewidth": 2,
      "links": [],
      "nullPointMode": "null",
      "options": {
        "alertThreshold": true
      },
      "percentage": false,
      "pluginVersion": "8.1.2",
      "pointradius": 5,
      "points": false,
      "renderer": "flot",
      "seriesOverrides": [],
      "spaceLength": 10,
      "stack": false,
      "steppedLine": false,
      "targets": [
        {
          "calculatedInterval": "2m",
          "datasource": {
            "type": "prometheus",
            "uid": "cFtQJpOMk"
          },
          "datasourceErrors": {},
          "errors": {},
          "expr": "rate(node_netstat_Tcp_ActiveOpens{instance=~\"$host\",job=\"GCP_Instance\"}[$interval]) or\nirate(node_netstat_Tcp_ActiveOpens{instance=~\"$host\",job=\"GCP_Instance\"}[5m])",
          "format": "time_series",
          "hide": false,
          "interval": "$interval",
          "intervalFactor": 1,
          "legendFormat": "{{instance}} - outgoing",
          "metric": "",
          "refId": "A",
          "step": 20
        },
        {
          "datasource": {
            "type": "prometheus",
            "uid": "cFtQJpOMk"
          },
          "expr": "rate(node_netstat_Tcp_PassiveOpens{instance=~\"$host\",job=\"GCP_Instance\"}[$interval]) or\nirate(node_netstat_Tcp_PassiveOpens{instance=~\"$host\",job=\"GCP_Instance\"}[5m])",
          "hide": false,
          "interval": "",
          "legendFormat": "{{instance}} - incoming",
          "refId": "B"
        }
      ],
      "thresholds": [],
      "timeRegions": [],
      "title": "TCP Connections",
      "tooltip": {
        "msResolution": false,
        "shared": true,
        "sort": 0,
        "value_type": "individual"
      },
      "type": "graph",
      "xaxis": {
        "mode": "time",
        "show": true,
        "values": [
          "total"
        ]
      },
      "yaxes": [
        {
          "$$hashKey": "object:211",
          "format": "short",
          "label": "Threads",
          "logBase": 1,
          "min": 0,
          "show": true
        },
        {
          "$$hashKey": "object:212",
          "format": "short",
          "label": "",
          "logBase": 1,
          "min": 0,
          "show": false
        }
      ],
      "yaxis": {
        "align": false
      }
    },
    {
      "collapsed": false,
      "datasource": {
        "type": "prometheus",
        "uid": "cFtQJpOMk"
      },
      "gridPos": {
        "h": 1,
        "w": 24,
        "x": 0,
        "y": 46
      },
      "id": 87,
      "panels": [],
      "repeat": "host",
      "targets": [
        {
          "datasource": {
            "type": "prometheus",
            "uid": "cFtQJpOMk"
          },
          "refId": "A"
        }
      ],
      "title": "Health metrics for $host",
      "type": "row"
    },
    {
      "datasource": {
        "type": "prometheus",
        "uid": "cFtQJpOMk"
      },
      "fieldConfig": {
        "defaults": {
          "color": {
            "mode": "thresholds"
          },
          "mappings": [
            {
              "options": {
                "match": "null",
                "result": {
                  "text": "N/A"
                }
              },
              "type": "special"
            }
          ],
          "thresholds": {
            "mode": "absolute",
            "steps": [
              {
                "color": "rgba(245, 54, 54, 0.9)"
              },
              {
                "color": "rgba(237, 129, 40, 0.89)",
                "value": 0
              },
              {
                "color": "rgba(50, 172, 45, 0.97)",
                "value": 360
              }
            ]
          },
          "unit": "s"
        },
        "overrides": []
      },
      "gridPos": {
        "h": 4,
        "w": 4,
        "x": 0,
        "y": 47
      },
      "id": 83,
      "links": [],
      "maxDataPoints": 100,
      "options": {
        "colorMode": "value",
        "graphMode": "none",
        "justifyMode": "auto",
        "orientation": "horizontal",
        "reduceOptions": {
          "calcs": [
            "lastNotNull"
          ],
          "fields": "",
          "values": false
        },
        "text": {},
        "textMode": "auto"
      },
      "pluginVersion": "8.1.2",
      "targets": [
        {
          "datasource": {
            "type": "prometheus",
            "uid": "cFtQJpOMk"
          },
          "expr": "mongodb_instance_uptime_seconds{instance=~\"$host\"}",
          "format": "time_series",
          "interval": "",
          "intervalFactor": 2,
          "legendFormat": "",
          "refId": "A",
          "step": 1800
        }
      ],
      "title": "Uptime",
      "type": "stat"
    },
    {
      "datasource": {
        "type": "prometheus",
        "uid": "cFtQJpOMk"
      },
      "fieldConfig": {
        "defaults": {
          "color": {
            "fixedColor": "rgb(31, 120, 193)",
            "mode": "fixed"
          },
          "mappings": [
            {
              "options": {
                "match": "null",
                "result": {
                  "text": "N/A"
                }
              },
              "type": "special"
            }
          ],
          "thresholds": {
            "mode": "absolute",
            "steps": [
              {
                "color": "green"
              },
              {
                "color": "red",
                "value": 80
              }
            ]
          },
          "unit": "none"
        },
        "overrides": []
      },
      "gridPos": {
        "h": 4,
        "w": 4,
        "x": 4,
        "y": 47
      },
      "id": 84,
      "links": [],
      "maxDataPoints": 100,
      "options": {
        "colorMode": "none",
        "graphMode": "area",
        "justifyMode": "auto",
        "orientation": "horizontal",
        "reduceOptions": {
          "calcs": [
            "mean"
          ],
          "fields": "",
          "values": false
        },
        "text": {},
        "textMode": "auto"
      },
      "pluginVersion": "8.1.2",
      "targets": [
        {
          "datasource": {
            "type": "prometheus",
            "uid": "cFtQJpOMk"
          },
          "expr": "mongodb_connections{instance=~\"$host\",state=\"available\"}",
          "format": "time_series",
          "interval": "",
          "intervalFactor": 2,
          "legendFormat": "",
          "metric": "mongodb_connections",
          "refId": "A",
          "step": 1800
        }
      ],
      "title": "Available Connections",
      "type": "stat"
    },
    {
      "datasource": {
        "type": "prometheus",
        "uid": "cFtQJpOMk"
      },
      "fieldConfig": {
        "defaults": {
          "color": {
            "fixedColor": "rgb(31, 120, 193)",
            "mode": "fixed"
          },
          "mappings": [
            {
              "options": {
                "match": "null",
                "result": {
                  "text": "N/A"
                }
              },
              "type": "special"
            }
          ],
          "thresholds": {
            "mode": "absolute",
            "steps": [
              {
                "color": "green"
              },
              {
                "color": "red",
                "value": 80
              }
            ]
          },
          "unit": "none"
        },
        "overrides": []
      },
      "gridPos": {
        "h": 4,
        "w": 16,
        "x": 8,
        "y": 47
      },
      "id": 85,
      "links": [],
      "maxDataPoints": 100,
      "options": {
        "colorMode": "none",
        "graphMode": "area",
        "justifyMode": "auto",
        "orientation": "horizontal",
        "reduceOptions": {
          "calcs": [
            "mean"
          ],
          "fields": "",
          "values": false
        },
        "text": {},
        "textMode": "auto"
      },
      "pluginVersion": "8.1.2",
      "targets": [
        {
          "datasource": {
            "type": "prometheus",
            "uid": "cFtQJpOMk"
          },
          "expr": "mongodb_connections{instance=~\"$host\",state=\"current\"}",
          "format": "time_series",
          "interval": "",
          "intervalFactor": 2,
          "legendFormat": "",
          "metric": "mongodb_connections",
          "refId": "A",
          "step": 1800
        }
      ],
      "title": "Open Connections",
      "type": "stat"
    },
    {
      "collapsed": false,
      "datasource": {
        "type": "prometheus",
        "uid": "cFtQJpOMk"
      },
      "gridPos": {
        "h": 1,
        "w": 24,
        "x": 0,
        "y": 51
      },
      "id": 82,
      "panels": [],
      "targets": [
        {
          "datasource": {
            "type": "prometheus",
            "uid": "cFtQJpOMk"
          },
          "refId": "A"
        }
      ],
      "title": "Health metrics for mongo-log-storefront-secondary",
      "type": "row"
    },
    {
      "datasource": {
        "type": "prometheus",
        "uid": "cFtQJpOMk"
      },
      "fieldConfig": {
        "defaults": {
          "color": {
            "mode": "thresholds"
          },
          "mappings": [
            {
              "options": {
                "match": "null",
                "result": {
                  "text": "N/A"
                }
              },
              "type": "special"
            }
          ],
          "thresholds": {
            "mode": "absolute",
            "steps": [
              {
                "color": "rgba(245, 54, 54, 0.9)"
              },
              {
                "color": "rgba(237, 129, 40, 0.89)",
                "value": 0
              },
              {
                "color": "rgba(50, 172, 45, 0.97)",
                "value": 360
              }
            ]
          },
          "unit": "s"
        },
        "overrides": []
      },
      "gridPos": {
        "h": 4,
        "w": 4,
        "x": 0,
        "y": 52
      },
      "id": 76,
      "links": [],
      "maxDataPoints": 100,
      "options": {
        "colorMode": "value",
        "graphMode": "none",
        "justifyMode": "auto",
        "orientation": "horizontal",
        "reduceOptions": {
          "calcs": [
            "lastNotNull"
          ],
          "fields": "/^mongodb_instance_uptime_seconds{instance=\"mongo-log-storefront-secondary\", job=\"GCP_Mongo_Instance\", privateip=\"10.160.0.181\"}$/",
          "values": false
        },
        "text": {},
        "textMode": "auto"
      },
      "pluginVersion": "8.1.2",
      "targets": [
        {
          "datasource": {
            "type": "prometheus",
            "uid": "cFtQJpOMk"
          },
          "expr": "mongodb_instance_uptime_seconds{instance=~\"mongo-log-storefront-secondary\"}",
          "format": "time_series",
          "interval": "",
          "intervalFactor": 2,
          "legendFormat": "",
          "refId": "A",
          "step": 1800
        }
      ],
      "title": "Uptime",
      "type": "stat"
    },
    {
      "datasource": {
        "type": "prometheus",
        "uid": "cFtQJpOMk"
      },
      "fieldConfig": {
        "defaults": {
          "color": {
            "fixedColor": "rgb(31, 120, 193)",
            "mode": "fixed"
          },
          "mappings": [
            {
              "options": {
                "match": "null",
                "result": {
                  "text": "N/A"
                }
              },
              "type": "special"
            }
          ],
          "thresholds": {
            "mode": "absolute",
            "steps": [
              {
                "color": "green"
              },
              {
                "color": "red",
                "value": 80
              }
            ]
          },
          "unit": "none"
        },
        "overrides": []
      },
      "gridPos": {
        "h": 4,
        "w": 4,
        "x": 4,
        "y": 52
      },
      "id": 78,
      "links": [],
      "maxDataPoints": 100,
      "options": {
        "colorMode": "none",
        "graphMode": "area",
        "justifyMode": "auto",
        "orientation": "horizontal",
        "reduceOptions": {
          "calcs": [
            "mean"
          ],
          "fields": "/^mongodb_connections{instance=\"mongo-log-storefront-secondary\", job=\"GCP_Mongo_Instance\", privateip=\"10.160.0.181\", state=\"available\"}$/",
          "values": false
        },
        "text": {},
        "textMode": "auto"
      },
      "pluginVersion": "8.1.2",
      "targets": [
        {
          "datasource": {
            "type": "prometheus",
            "uid": "cFtQJpOMk"
          },
          "expr": "mongodb_connections{instance=~\"mongo-log-storefront-secondary\",state=\"available\"}",
          "format": "time_series",
          "interval": "",
          "intervalFactor": 2,
          "legendFormat": "",
          "metric": "mongodb_connections",
          "refId": "A",
          "step": 1800
        }
      ],
      "title": "Available Connections",
      "type": "stat"
    },
    {
      "datasource": {
        "type": "prometheus",
        "uid": "cFtQJpOMk"
      },
      "fieldConfig": {
        "defaults": {
          "color": {
            "fixedColor": "rgb(31, 120, 193)",
            "mode": "fixed"
          },
          "mappings": [
            {
              "options": {
                "match": "null",
                "result": {
                  "text": "N/A"
                }
              },
              "type": "special"
            }
          ],
          "thresholds": {
            "mode": "absolute",
            "steps": [
              {
                "color": "green"
              },
              {
                "color": "red",
                "value": 80
              }
            ]
          },
          "unit": "none"
        },
        "overrides": []
      },
      "gridPos": {
        "h": 4,
        "w": 16,
        "x": 8,
        "y": 52
      },
      "id": 80,
      "links": [],
      "maxDataPoints": 100,
      "options": {
        "colorMode": "none",
        "graphMode": "area",
        "justifyMode": "auto",
        "orientation": "horizontal",
        "reduceOptions": {
          "calcs": [
            "mean"
          ],
          "fields": "/^mongodb_connections{instance=\"mongo-log-storefront-secondary\", job=\"GCP_Mongo_Instance\", privateip=\"10.160.0.181\", state=\"current\"}$/",
          "values": false
        },
        "text": {},
        "textMode": "auto"
      },
      "pluginVersion": "8.1.2",
      "targets": [
        {
          "datasource": {
            "type": "prometheus",
            "uid": "cFtQJpOMk"
          },
          "expr": "mongodb_connections{instance=~\"mongo-log-storefront-secondary\",state=\"current\"}",
          "format": "time_series",
          "interval": "",
          "intervalFactor": 2,
          "legendFormat": "",
          "metric": "mongodb_connections",
          "refId": "A",
          "step": 1800
        }
      ],
      "title": "Open Connections",
      "type": "stat"
    },
    {
      "collapsed": false,
      "datasource": {
        "type": "prometheus",
        "uid": "cFtQJpOMk"
      },
      "gridPos": {
        "h": 1,
        "w": 24,
        "x": 0,
        "y": 56
      },
      "id": 74,
      "panels": [],
      "targets": [
        {
          "datasource": {
            "type": "prometheus",
            "uid": "cFtQJpOMk"
          },
          "refId": "A"
        }
      ],
      "title": "Health metrics for mongo-log-storefront-arbitor",
      "type": "row"
    },
    {
      "datasource": {
        "type": "prometheus",
        "uid": "cFtQJpOMk"
      },
      "fieldConfig": {
        "defaults": {
          "color": {
            "mode": "thresholds"
          },
          "mappings": [
            {
              "options": {
                "match": "null",
                "result": {
                  "text": "N/A"
                }
              },
              "type": "special"
            }
          ],
          "thresholds": {
            "mode": "absolute",
            "steps": [
              {
                "color": "rgba(245, 54, 54, 0.9)"
              },
              {
                "color": "rgba(237, 129, 40, 0.89)",
                "value": 0
              },
              {
                "color": "rgba(50, 172, 45, 0.97)",
                "value": 360
              }
            ]
          },
          "unit": "s"
        },
        "overrides": []
      },
      "gridPos": {
        "h": 4,
        "w": 4,
        "x": 0,
        "y": 57
      },
      "id": 68,
      "links": [],
      "maxDataPoints": 100,
      "options": {
        "colorMode": "value",
        "graphMode": "none",
        "justifyMode": "auto",
        "orientation": "horizontal",
        "reduceOptions": {
          "calcs": [
            "lastNotNull"
          ],
          "fields": "/^mongodb_instance_uptime_seconds{instance=\"mongo-log-storefront-arbitor\", job=\"GCP_Mongo_Instance\", privateip=\"10.160.0.182\"}$/",
          "values": false
        },
        "text": {},
        "textMode": "auto"
      },
      "pluginVersion": "8.1.2",
      "targets": [
        {
          "datasource": {
            "type": "prometheus",
            "uid": "cFtQJpOMk"
          },
          "expr": "mongodb_instance_uptime_seconds{instance=~\"mongo-log-storefront-arbitor\"}",
          "format": "time_series",
          "interval": "",
          "intervalFactor": 2,
          "legendFormat": "",
          "refId": "A",
          "step": 1800
        }
      ],
      "title": "Uptime",
      "type": "stat"
    },
    {
      "datasource": {
        "type": "prometheus",
        "uid": "cFtQJpOMk"
      },
      "fieldConfig": {
        "defaults": {
          "color": {
            "fixedColor": "rgb(31, 120, 193)",
            "mode": "fixed"
          },
          "mappings": [
            {
              "options": {
                "match": "null",
                "result": {
                  "text": "N/A"
                }
              },
              "type": "special"
            }
          ],
          "thresholds": {
            "mode": "absolute",
            "steps": [
              {
                "color": "green"
              },
              {
                "color": "red",
                "value": 80
              }
            ]
          },
          "unit": "none"
        },
        "overrides": []
      },
      "gridPos": {
        "h": 4,
        "w": 4,
        "x": 4,
        "y": 57
      },
      "id": 70,
      "links": [],
      "maxDataPoints": 100,
      "options": {
        "colorMode": "none",
        "graphMode": "area",
        "justifyMode": "auto",
        "orientation": "horizontal",
        "reduceOptions": {
          "calcs": [
            "mean"
          ],
          "fields": "/^mongodb_connections{instance=\"mongo-log-storefront-arbitor\", job=\"GCP_Mongo_Instance\", privateip=\"10.160.0.182\", state=\"available\"}$/",
          "values": false
        },
        "text": {},
        "textMode": "auto"
      },
      "pluginVersion": "8.1.2",
      "targets": [
        {
          "datasource": {
            "type": "prometheus",
            "uid": "cFtQJpOMk"
          },
          "expr": "mongodb_connections{instance=~\"mongo-log-storefront-arbitor\",state=\"available\"}",
          "format": "time_series",
          "interval": "",
          "intervalFactor": 2,
          "legendFormat": "",
          "metric": "mongodb_connections",
          "refId": "A",
          "step": 1800
        }
      ],
      "title": "Available Connections",
      "type": "stat"
    },
    {
      "datasource": {
        "type": "prometheus",
        "uid": "cFtQJpOMk"
      },
      "fieldConfig": {
        "defaults": {
          "color": {
            "fixedColor": "rgb(31, 120, 193)",
            "mode": "fixed"
          },
          "mappings": [
            {
              "options": {
                "match": "null",
                "result": {
                  "text": "N/A"
                }
              },
              "type": "special"
            }
          ],
          "thresholds": {
            "mode": "absolute",
            "steps": [
              {
                "color": "green"
              },
              {
                "color": "red",
                "value": 80
              }
            ]
          },
          "unit": "none"
        },
        "overrides": []
      },
      "gridPos": {
        "h": 4,
        "w": 16,
        "x": 8,
        "y": 57
      },
      "id": 72,
      "links": [],
      "maxDataPoints": 100,
      "options": {
        "colorMode": "none",
        "graphMode": "area",
        "justifyMode": "auto",
        "orientation": "horizontal",
        "reduceOptions": {
          "calcs": [
            "mean"
          ],
          "fields": "/^mongodb_connections{instance=\"mongo-log-storefront-arbitor\", job=\"GCP_Mongo_Instance\", privateip=\"10.160.0.182\", state=\"current\"}$/",
          "values": false
        },
        "text": {},
        "textMode": "auto"
      },
      "pluginVersion": "8.1.2",
      "targets": [
        {
          "datasource": {
            "type": "prometheus",
            "uid": "cFtQJpOMk"
          },
          "expr": "mongodb_connections{instance=~\"mongo-log-storefront-arbitor\",state=\"current\"}",
          "format": "time_series",
          "interval": "",
          "intervalFactor": 2,
          "legendFormat": "",
          "metric": "mongodb_connections",
          "refId": "A",
          "step": 1800
        }
      ],
      "title": "Open Connections",
      "type": "stat"
    },
    {
      "collapsed": false,
      "datasource": {
        "type": "prometheus",
        "uid": "cFtQJpOMk"
      },
      "gridPos": {
        "h": 1,
        "w": 24,
        "x": 0,
        "y": 61
      },
      "id": 101,
      "panels": [],
      "targets": [
        {
          "datasource": {
            "type": "prometheus",
            "uid": "cFtQJpOMk"
          },
          "refId": "A"
        }
      ],
      "title": "System Charts",
      "type": "row"
    },
    {
      "aliasColors": {},
      "bars": false,
      "dashLength": 10,
      "dashes": false,
      "datasource": {
        "type": "prometheus",
        "uid": "cFtQJpOMk"
      },
      "decimals": 2,
      "editable": true,
      "error": false,
      "fill": 2,
      "fillGradient": 0,
      "grid": {},
      "gridPos": {
        "h": 7,
        "w": 12,
        "x": 0,
        "y": 62
      },
      "hiddenSeries": false,
      "id": 103,
      "legend": {
        "alignAsTable": true,
        "avg": true,
        "current": false,
        "hideEmpty": false,
        "max": true,
        "min": true,
        "rightSide": false,
        "show": true,
        "sort": "avg",
        "sortDesc": true,
        "total": false,
        "values": true
      },
      "lines": true,
      "linewidth": 2,
      "links": [],
      "nullPointMode": "null",
      "options": {
        "alertThreshold": true
      },
      "percentage": false,
      "pluginVersion": "8.1.2",
      "pointradius": 5,
      "points": false,
      "renderer": "flot",
      "seriesOverrides": [],
      "spaceLength": 10,
      "stack": false,
      "steppedLine": false,
      "targets": [
        {
          "calculatedInterval": "2s",
          "datasource": {
            "type": "prometheus",
            "uid": "cFtQJpOMk"
          },
          "datasourceErrors": {},
          "errors": {},
          "expr": "rate(node_vmstat_pgpgin{instance=~\"$host\"}[$interval]) * 1024 or irate(node_vmstat_pgpgin{instance=~\"$host\"}[5m]) * 1024",
          "format": "time_series",
          "interval": "$interval",
          "intervalFactor": 1,
          "legendFormat": "Page In",
          "metric": "",
          "refId": "A",
          "step": 20,
          "target": ""
        },
        {
          "calculatedInterval": "2s",
          "datasource": {
            "type": "prometheus",
            "uid": "cFtQJpOMk"
          },
          "datasourceErrors": {},
          "errors": {},
          "expr": "rate(node_vmstat_pgpgout{instance=~\"$host\"}[$interval]) * 1024 or irate(node_vmstat_pgpgout{instance=~\"$host\"}[5m]) * 1024",
          "format": "time_series",
          "interval": "$interval",
          "intervalFactor": 1,
          "legendFormat": "Page Out",
          "metric": "",
          "refId": "B",
          "step": 20,
          "target": ""
        }
      ],
      "thresholds": [],
      "timeRegions": [],
      "title": "I/O Activity",
      "tooltip": {
        "msResolution": false,
        "shared": true,
        "sort": 0,
        "value_type": "individual"
      },
      "type": "graph",
      "xaxis": {
        "mode": "time",
        "show": true,
        "values": []
      },
      "yaxes": [
        {
          "format": "Bps",
          "label": "",
          "logBase": 1,
          "min": 0,
          "show": true
        },
        {
          "format": "bytes",
          "logBase": 1,
          "min": 0,
          "show": true
        }
      ],
      "yaxis": {
        "align": false
      }
    },
    {
      "aliasColors": {},
      "bars": false,
      "dashLength": 10,
      "dashes": false,
      "datasource": {
        "type": "prometheus",
        "uid": "cFtQJpOMk"
      },
      "editable": true,
      "error": false,
      "fill": 6,
      "fillGradient": 0,
      "grid": {},
      "gridPos": {
        "h": 7,
        "w": 12,
        "x": 12,
        "y": 62
      },
      "height": "250px",
      "hiddenSeries": false,
      "id": 105,
      "legend": {
        "alignAsTable": true,
        "avg": true,
        "current": false,
        "hideEmpty": false,
        "max": true,
        "min": true,
        "rightSide": false,
        "show": true,
        "sort": "avg",
        "sortDesc": true,
        "total": false,
        "values": true
      },
      "lines": true,
      "linewidth": 2,
      "links": [],
      "nullPointMode": "null",
      "options": {
        "alertThreshold": true
      },
      "percentage": false,
      "pluginVersion": "8.1.2",
      "pointradius": 5,
      "points": false,
      "renderer": "flot",
      "seriesOverrides": [],
      "spaceLength": 10,
      "stack": true,
      "steppedLine": false,
      "targets": [
        {
          "calculatedInterval": "2s",
          "datasource": {
            "type": "prometheus",
            "uid": "cFtQJpOMk"
          },
          "datasourceErrors": {},
          "errors": {},
          "expr": "max(node_memory_MemTotal_bytes{instance=~\"$host\"}) without(job) - \n(max(node_memory_MemFree_bytes{instance=~\"$host\"}) without(job) + \nmax(node_memory_Buffers_bytes{instance=~\"$host\"}) without(job) + \n(max(node_memory_Cached_bytes{instance=~\"$host\",job=~\"GCP_Instance\"}) without (job)))",
          "format": "time_series",
          "hide": false,
          "interval": "$interval",
          "intervalFactor": 1,
          "legendFormat": "Used",
          "metric": "",
          "refId": "A",
          "step": 20,
          "target": ""
        },
        {
          "calculatedInterval": "2s",
          "datasource": {
            "type": "prometheus",
            "uid": "cFtQJpOMk"
          },
          "datasourceErrors": {},
          "errors": {},
          "expr": "node_memory_MemFree_bytes{instance=~\"$host\"}",
          "format": "time_series",
          "hide": false,
          "interval": "$interval",
          "intervalFactor": 1,
          "legendFormat": "Free",
          "metric": "",
          "refId": "B",
          "step": 20,
          "target": ""
        },
        {
          "calculatedInterval": "2s",
          "datasource": {
            "type": "prometheus",
            "uid": "cFtQJpOMk"
          },
          "datasourceErrors": {},
          "errors": {},
          "expr": "node_memory_Buffers_bytes{instance=~\"$host\"}",
          "format": "time_series",
          "hide": false,
          "interval": "$interval",
          "intervalFactor": 1,
          "legendFormat": "Buffers",
          "metric": "",
          "refId": "D",
          "step": 20,
          "target": ""
        },
        {
          "calculatedInterval": "2s",
          "datasource": {
            "type": "prometheus",
            "uid": "cFtQJpOMk"
          },
          "datasourceErrors": {},
          "errors": {},
          "expr": "max(node_memory_Cached_bytes{instance=~\"$host\",job=~\"GCP_Instance\"}) without (job)",
          "format": "time_series",
          "hide": false,
          "interval": "$interval",
          "intervalFactor": 1,
          "legendFormat": "Cached",
          "metric": "",
          "refId": "E",
          "step": 20,
          "target": ""
        }
      ],
      "thresholds": [],
      "timeRegions": [],
      "title": "Memory Distribution",
      "tooltip": {
        "msResolution": false,
        "shared": true,
        "sort": 0,
        "value_type": "individual"
      },
      "type": "graph",
      "xaxis": {
        "mode": "time",
        "show": true,
        "values": []
      },
      "yaxes": [
        {
          "$$hashKey": "object:2451",
          "format": "bytes",
          "label": "",
          "logBase": 1,
          "min": 0,
          "show": true
        },
        {
          "$$hashKey": "object:2452",
          "format": "bytes",
          "logBase": 1,
          "min": 0,
          "show": false
        }
      ],
      "yaxis": {
        "align": false
      }
    },
    {
      "aliasColors": {
        "Load 15m": "super-light-red",
        "Load 1m": "dark-red",
        "Load 5m": "dark-orange",
        "Max Core Utilization": "#bf1b00",
        "iowait": "#e24d42",
        "nice": "#1f78c1",
        "softirq": "#806eb7",
        "system": "#eab839",
        "user": "#508642"
      },
      "bars": false,
      "dashLength": 10,
      "dashes": false,
      "datasource": {
        "type": "prometheus",
        "uid": "cFtQJpOMk"
      },
      "editable": true,
      "error": false,
      "fill": 0,
      "fillGradient": 0,
      "grid": {},
      "gridPos": {
        "h": 7,
        "w": 12,
        "x": 0,
        "y": 69
      },
      "height": "",
      "hiddenSeries": false,
      "id": 107,
      "legend": {
        "alignAsTable": true,
        "avg": true,
        "current": false,
        "hideEmpty": true,
        "hideZero": true,
        "max": true,
        "min": true,
        "rightSide": true,
        "show": true,
        "sort": "avg",
        "sortDesc": true,
        "total": false,
        "values": true
      },
      "lines": true,
      "linewidth": 2,
      "links": [],
      "nullPointMode": "null",
      "options": {
        "alertThreshold": true
      },
      "percentage": false,
      "pluginVersion": "8.1.2",
      "pointradius": 5,
      "points": false,
      "renderer": "flot",
      "seriesOverrides": [],
      "spaceLength": 10,
      "stack": false,
      "steppedLine": false,
      "targets": [
        {
          "calculatedInterval": "2s",
          "datasource": {
            "type": "prometheus",
            "uid": "cFtQJpOMk"
          },
          "datasourceErrors": {},
          "errors": {},
          "expr": "clamp_max(((avg by (mode) ( (clamp_max(rate(node_cpu{instance=~\"$host\",mode!=\"idle\"}[$interval]),1)) or (clamp_max(irate(node_cpu{instance=~\"$host\",mode!=\"idle\"}[5m]),1)) ))*100 or (avg_over_time(node_cpu_average{instance=~\"$host\", mode!=\"total\", mode!=\"idle\"}[$interval]) or avg_over_time(node_cpu_average{instance=~\"$host\", mode!=\"total\", mode!=\"idle\"}[5m]))),100)",
          "format": "time_series",
          "hide": true,
          "interval": "$interval",
          "intervalFactor": 1,
          "legendFormat": "{{ mode }}",
          "metric": "",
          "refId": "A",
          "step": 20
        },
        {
          "datasource": {
            "type": "prometheus",
            "uid": "cFtQJpOMk"
          },
          "expr": "clamp_max(max by () (sum  by (cpu) ( (clamp_max(rate(node_cpu{instance=~\"$host\",mode!=\"idle\",mode!=\"iowait\"}[$interval]),1)) or (clamp_max(irate(node_cpu{instance=~\"$host\",mode!=\"idle\",mode!=\"iowait\"}[5m]),1)) ))*100,100)",
          "format": "time_series",
          "hide": true,
          "interval": "$interval",
          "intervalFactor": 1,
          "legendFormat": "Max Core Utilization",
          "refId": "B",
          "step": 20
        },
        {
          "datasource": {
            "type": "prometheus",
            "uid": "cFtQJpOMk"
          },
          "expr": "node_load1{instance=~\"$host\",job=\"GCP_Instance\"}",
          "format": "time_series",
          "hide": false,
          "interval": "",
          "intervalFactor": 2,
          "legendFormat": "Load 1m",
          "refId": "C"
        },
        {
          "datasource": {
            "type": "prometheus",
            "uid": "cFtQJpOMk"
          },
          "expr": "node_load5{instance=~\"$host\",job=\"GCP_Instance\"}",
          "format": "time_series",
          "hide": false,
          "interval": "",
          "intervalFactor": 2,
          "legendFormat": "Load 5m",
          "refId": "D"
        },
        {
          "datasource": {
            "type": "prometheus",
            "uid": "cFtQJpOMk"
          },
          "expr": "node_load15{instance=~\"$host\",job=\"GCP_Instance\"}",
          "format": "time_series",
          "hide": false,
          "interval": "",
          "intervalFactor": 2,
          "legendFormat": "Load 15m",
          "refId": "E"
        }
      ],
      "thresholds": [],
      "timeRegions": [],
      "title": "CPU Usage / Load",
      "tooltip": {
        "msResolution": false,
        "shared": true,
        "sort": 0,
        "value_type": "individual"
      },
      "type": "graph",
      "xaxis": {
        "mode": "time",
        "show": true,
        "values": []
      },
      "yaxes": [
        {
          "$$hashKey": "object:402",
          "format": "none",
          "label": "",
          "logBase": 1,
          "min": 0,
          "show": true
        },
        {
          "$$hashKey": "object:403",
          "format": "none",
          "logBase": 1,
          "min": 0,
          "show": true
        }
      ],
      "yaxis": {
        "align": false
      }
    },
    {
      "aliasColors": {},
      "bars": false,
      "dashLength": 10,
      "dashes": false,
      "datasource": {
        "type": "prometheus",
        "uid": "cFtQJpOMk"
      },
      "decimals": 2,
      "editable": true,
      "error": false,
      "fill": 2,
      "fillGradient": 0,
      "grid": {},
      "gridPos": {
        "h": 7,
        "w": 12,
        "x": 12,
        "y": 69
      },
      "height": "250px",
      "hiddenSeries": false,
      "id": 109,
      "legend": {
        "alignAsTable": true,
        "avg": true,
        "current": false,
        "hideEmpty": true,
        "hideZero": true,
        "max": true,
        "min": true,
        "rightSide": false,
        "show": true,
        "sort": "avg",
        "sortDesc": true,
        "total": false,
        "values": true
      },
      "lines": false,
      "linewidth": 2,
      "links": [],
      "nullPointMode": "null",
      "options": {
        "alertThreshold": true
      },
      "percentage": false,
      "pluginVersion": "8.1.2",
      "pointradius": 1,
      "points": true,
      "renderer": "flot",
      "seriesOverrides": [],
      "spaceLength": 10,
      "stack": false,
      "steppedLine": false,
      "targets": [
        {
          "calculatedInterval": "2m",
          "datasource": {
            "type": "prometheus",
            "uid": "cFtQJpOMk"
          },
          "datasourceErrors": {},
          "errors": {},
          "expr": "sum((rate(node_disk_read_time_seconds_total{device!~\"dm-.+\", instance=~\"$host\"}[$interval]) / rate(node_disk_reads_completed_total{device!~\"dm-.+\", instance=~\"$host\"}[$interval])) or (irate(node_disk_read_time_seconds_total{device!~\"dm-.+\", instance=~\"$host\"}[5m]) / irate(node_disk_reads_completed_total{device!~\"dm-.+\", instance=~\"$host\"}[5m]))\nor avg_over_time(aws_rds_read_latency_average{instance=~\"$host\"}[$interval]) or avg_over_time(aws_rds_read_latency_average{instance=~\"$host\"}[5m]))",
          "format": "time_series",
          "hide": true,
          "interval": "$interval",
          "intervalFactor": 1,
          "legendFormat": "Read",
          "metric": "",
          "refId": "A",
          "step": 20,
          "target": ""
        },
        {
          "calculatedInterval": "2m",
          "datasource": {
            "type": "prometheus",
            "uid": "cFtQJpOMk"
          },
          "datasourceErrors": {},
          "errors": {},
          "expr": "sum((rate(node_disk_write_time_ms{device!~\"dm-.+\", instance=~\"$host\"}[$interval]) / rate(node_disk_writes_completed{device!~\"dm-.+\", instance=~\"$host\"}[$interval])) or (irate(node_disk_write_time_ms{device!~\"dm-.+\", instance=~\"$host\"}[5m]) / irate(node_disk_writes_completed{device!~\"dm-.+\", instance=~\"$host\"}[5m])) or \navg_over_time(aws_rds_write_latency_average{instance=~\"$host\"}[$interval]) or avg_over_time(aws_rds_write_latency_average{instance=~\"$host\"}[5m]))",
          "format": "time_series",
          "hide": true,
          "interval": "$interval",
          "intervalFactor": 1,
          "legendFormat": "Write",
          "metric": "",
          "refId": "B",
          "step": 20,
          "target": ""
        },
        {
          "datasource": {
            "type": "prometheus",
            "uid": "cFtQJpOMk"
          },
          "expr": "rate(node_disk_read_time_seconds_total{instance=\"$host\",job=\"GCP_Instance\"}[30s]) / rate(node_disk_reads_completed_total{instance=\"$host\",job=\"GCP_Instance\"}[30s]) * 100",
          "interval": "",
          "legendFormat": "Read",
          "refId": "C"
        },
        {
          "datasource": {
            "type": "prometheus",
            "uid": "cFtQJpOMk"
          },
          "expr": "rate(node_disk_write_time_seconds_total{instance=\"$host\",job=\"GCP_Instance\",device=\"sda\"}[1m]) / rate(node_disk_writes_completed_total{instance=\"$host\",job=\"GCP_Instance\",device=\"sda\"}[1m]) * 100",
          "hide": false,
          "interval": "",
          "legendFormat": "Write sda",
          "refId": "D"
        },
        {
          "datasource": {
            "type": "prometheus",
            "uid": "cFtQJpOMk"
          },
          "expr": "rate(node_disk_write_time_seconds_total{instance=\"$host\",job=\"GCP_Instance\",device=\"sdb\"}[1m]) / rate(node_disk_writes_completed_total{instance=\"$host\",job=\"GCP_Instance\",device=\"sdb\"}[1m]) * 100",
          "interval": "",
          "legendFormat": "Write sdb",
          "refId": "E"
        }
      ],
      "thresholds": [],
      "timeRegions": [],
      "title": "Disk Latency",
      "tooltip": {
        "msResolution": false,
        "shared": true,
        "sort": 0,
        "value_type": "individual"
      },
      "type": "graph",
      "xaxis": {
        "mode": "time",
        "show": true,
        "values": []
      },
      "yaxes": [
        {
          "$$hashKey": "object:29",
          "format": "ms",
          "label": "",
          "logBase": 2,
          "show": true
        },
        {
          "$$hashKey": "object:30",
          "format": "ms",
          "label": "",
          "logBase": 1,
          "min": 0,
          "show": true
        }
      ],
      "yaxis": {
        "align": false
      }
    },
    {
      "aliasColors": {},
      "bars": false,
      "dashLength": 10,
      "dashes": false,
      "datasource": {
        "type": "prometheus",
        "uid": "cFtQJpOMk"
      },
      "editable": true,
      "error": false,
      "fill": 2,
      "fillGradient": 0,
      "grid": {},
      "gridPos": {
        "h": 7,
        "w": 12,
        "x": 0,
        "y": 76
      },
      "height": "250px",
      "hiddenSeries": false,
      "id": 111,
      "legend": {
        "alignAsTable": true,
        "avg": true,
        "current": false,
        "hideEmpty": false,
        "max": true,
        "min": true,
        "rightSide": false,
        "show": true,
        "sort": "avg",
        "sortDesc": true,
        "total": false,
        "values": true
      },
      "lines": true,
      "linewidth": 2,
      "links": [],
      "nullPointMode": "null",
      "options": {
        "alertThreshold": true
      },
      "percentage": false,
      "pluginVersion": "8.1.2",
      "pointradius": 5,
      "points": false,
      "renderer": "flot",
      "seriesOverrides": [
        {
          "alias": "Outbound",
          "transform": "negative-Y"
        }
      ],
      "spaceLength": 10,
      "stack": false,
      "steppedLine": false,
      "targets": [
        {
          "calculatedInterval": "2s",
          "datasource": {
            "type": "prometheus",
            "uid": "cFtQJpOMk"
          },
          "datasourceErrors": {},
          "errors": {},
          "expr": "sum(rate(node_network_receive_bytes_total{instance=~\"$host\", device!=\"lo\"}[$interval])) or sum(irate(node_network_receive_bytes_total{instance=~\"$host\", device!=\"lo\"}[5m])) or sum(max_over_time(node_network_receive_bytes_total{instance=~\"$host\"}[$interval])) or sum(max_over_time(node_network_receive_bytes_total{instance=~\"$host\"}[5m])) ",
          "format": "time_series",
          "interval": "$interval",
          "intervalFactor": 1,
          "legendFormat": "Inbound",
          "metric": "",
          "refId": "B",
          "step": 20,
          "target": ""
        },
        {
          "calculatedInterval": "2s",
          "datasource": {
            "type": "prometheus",
            "uid": "cFtQJpOMk"
          },
          "datasourceErrors": {},
          "errors": {},
          "expr": "sum(rate(node_network_transmit_bytes_total{instance=~\"$host\", device!=\"lo\"}[$interval])) or sum(irate(node_network_transmit_bytes_total{instance=~\"$host\", device!=\"lo\"}[5m])) or\nsum(max_over_time(node_network_transmit_bytes_total{instance=~\"$host\"}[$interval])) or sum(max_over_time(node_network_transmit_bytes_total{instance=~\"$host\"}[5m]))",
          "format": "time_series",
          "interval": "$interval",
          "intervalFactor": 1,
          "legendFormat": "Outbound",
          "metric": "",
          "refId": "A",
          "step": 20,
          "target": ""
        }
      ],
      "thresholds": [],
      "timeRegions": [],
      "title": "Network Traffic",
      "tooltip": {
        "msResolution": false,
        "shared": true,
        "sort": 0,
        "value_type": "individual"
      },
      "type": "graph",
      "xaxis": {
        "mode": "time",
        "show": true,
        "values": []
      },
      "yaxes": [
        {
          "format": "Bps",
          "label": "Outbound (-) / Inbound (+)",
          "logBase": 1,
          "show": true
        },
        {
          "format": "bytes",
          "logBase": 1,
          "min": 0,
          "show": false
        }
      ],
      "yaxis": {
        "align": false
      }
    },
    {
      "aliasColors": {},
      "bars": false,
      "dashLength": 10,
      "dashes": false,
      "datasource": {
        "type": "prometheus",
        "uid": "cFtQJpOMk"
      },
      "editable": true,
      "error": false,
      "fill": 2,
      "fillGradient": 0,
      "grid": {},
      "gridPos": {
        "h": 7,
        "w": 12,
        "x": 12,
        "y": 76
      },
      "hiddenSeries": false,
      "id": 113,
      "legend": {
        "alignAsTable": true,
        "avg": true,
        "current": false,
        "hideEmpty": false,
        "max": true,
        "min": true,
        "rightSide": false,
        "show": true,
        "sort": "avg",
        "sortDesc": true,
        "total": false,
        "values": true
      },
      "lines": true,
      "linewidth": 2,
      "links": [],
      "nullPointMode": "null",
      "options": {
        "alertThreshold": true
      },
      "percentage": false,
      "pluginVersion": "8.1.2",
      "pointradius": 5,
      "points": false,
      "renderer": "flot",
      "seriesOverrides": [],
      "spaceLength": 10,
      "stack": false,
      "steppedLine": false,
      "targets": [
        {
          "calculatedInterval": "2s",
          "datasource": {
            "type": "prometheus",
            "uid": "cFtQJpOMk"
          },
          "datasourceErrors": {},
          "errors": {},
          "expr": "rate(node_vmstat_pswpin{instance=~\"$host\",job=\"GCP_Instance\"}[$interval]) * 4096 or irate(node_vmstat_pswpin{instance=~\"$host\",job=\"GCP_Instance\"}[5m]) * 4096",
          "format": "time_series",
          "interval": "$interval",
          "intervalFactor": 1,
          "legendFormat": "Swap In (Reads)",
          "metric": "",
          "refId": "A",
          "step": 20,
          "target": ""
        },
        {
          "calculatedInterval": "2s",
          "datasource": {
            "type": "prometheus",
            "uid": "cFtQJpOMk"
          },
          "datasourceErrors": {},
          "errors": {},
          "expr": "rate(node_vmstat_pswpout{instance=~\"$host\",job=\"GCP_Instance\"}[$interval]) * 4096 or irate(node_vmstat_pswpout{instance=~\"$host\",job=\"GCP_Instance\"}[5m]) * 4096",
          "format": "time_series",
          "interval": "$interval",
          "intervalFactor": 1,
          "legendFormat": "Swap Out (Writes)",
          "metric": "",
          "refId": "B",
          "step": 20,
          "target": ""
        }
      ],
      "thresholds": [],
      "timeRegions": [],
      "title": "Swap Activity",
      "tooltip": {
        "msResolution": false,
        "shared": true,
        "sort": 0,
        "value_type": "individual"
      },
      "type": "graph",
      "xaxis": {
        "mode": "time",
        "show": true,
        "values": []
      },
      "yaxes": [
        {
          "$$hashKey": "object:2940",
          "format": "Bps",
          "label": "",
          "logBase": 1,
          "min": 0,
          "show": true
        },
        {
          "$$hashKey": "object:2941",
          "format": "bytes",
          "logBase": 1,
          "min": 0,
          "show": true
        }
      ],
      "yaxis": {
        "align": false
      }
    }
  ],
  "refresh": "1m",
  "schemaVersion": 36,
  "style": "dark",
  "tags": [
    "MongoDB",
    "database",
    "db"
  ],
  "templating": {
    "list": [
      {
        "allFormat": "glob",
        "auto": true,
        "auto_count": 200,
        "auto_min": "1s",
        "current": {
          "selected": false,
          "text": "auto",
          "value": "$__auto_interval_interval"
        },
        "datasource": "Prometheus",
        "hide": 0,
        "includeAll": false,
        "label": "Interval",
        "multi": false,
        "multiFormat": "glob",
        "name": "interval",
        "options": [
          {
            "selected": true,
            "text": "auto",
            "value": "$__auto_interval_interval"
          },
          {
            "selected": false,
            "text": "1s",
            "value": "1s"
          },
          {
            "selected": false,
            "text": "5s",
            "value": "5s"
          },
          {
            "selected": false,
            "text": "1m",
            "value": "1m"
          },
          {
            "selected": false,
            "text": "5m",
            "value": "5m"
          },
          {
            "selected": false,
            "text": "1h",
            "value": "1h"
          },
          {
            "selected": false,
            "text": "6h",
            "value": "6h"
          },
          {
            "selected": false,
            "text": "1d",
            "value": "1d"
          }
        ],
        "query": "1s,5s,1m,5m,1h,6h,1d",
        "queryValue": "",
        "refresh": 2,
        "skipUrlSync": false,
        "type": "interval"
      },
      {
        "allFormat": "glob",
        "current": {
          "selected": false,
          "text": "mongo-log-storefront-primary",
          "value": "mongo-log-storefront-primary"
        },
        "datasource": {
          "type": "prometheus",
          "uid": "cFtQJpOMk"
        },
        "definition": "",
        "hide": 0,
        "includeAll": false,
        "label": "Instance",
        "multi": false,
        "multiFormat": "glob",
        "name": "host",
        "options": [],
        "query": {
          "query": "label_values({__name__=~\"mongodb_mongod_connections{cluster=~\\\"$cluster\\\"}|mongodb_up\"}, instance)",
          "refId": "Prometheus-host-Variable-Query"
        },
        "refresh": 2,
        "regex": "",
        "skipUrlSync": false,
        "sort": 1,
        "tagsQuery": "",
        "type": "query",
        "useTags": false
      },
      {
        "current": {
          "isNone": true,
          "selected": false,
          "text": "None",
          "value": ""
        },
        "datasource": {
          "type": "prometheus",
          "uid": "cFtQJpOMk"
        },
        "definition": "",
        "hide": 0,
        "includeAll": false,
        "multi": false,
        "name": "query0",
        "options": [],
        "query": {
          "query": "",
          "refId": "Prometheus-query0-Variable-Query"
        },
        "refresh": 1,
        "regex": "",
        "skipUrlSync": false,
        "sort": 0,
        "type": "query"
      }
    ]
  },
  "time": {
    "from": "now-3h",
    "to": "now"
  },
  "timepicker": {
    "hidden": false,
    "now": true,
    "refresh_intervals": [
      "5s",
      "10s",
      "30s",
      "1m",
      "5m",
      "15m",
      "30m",
      "1h",
      "2h",
      "1d"
    ],
    "time_options": [
      "5m",
      "15m",
      "1h",
      "6h",
      "12h",
      "24h",
      "2d",
      "7d",
      "30d"
    ]
  },
  "timezone": "browser",
  "title": "MongoDB Dashboard",
  "uid": "6Lk9wMHik",
  "version": 42,
  "weekStart": ""
}
