{
  "annotations": {
    "list": [
      {
        "builtIn": 1,
        "datasource": "-- Grafana --",
        "enable": true,
        "hide": true,
        "iconColor": "rgba(0, 211, 255, 1)",
        "name": "Annotations & Alerts",
        "type": "dashboard"
      }
    ]
  },
  "description": "Single Pane Of Glass",
  "editable": true,
  "gnetId": null,
  "graphTooltip": 0,
  "id": 13,
  "iteration": 1653984209295,
  "links": [],
  "panels": [
    {
      "datasource": null,
      "fieldConfig": {
        "defaults": {
          "decimals": 0,
          "mappings": [],
          "thresholds": {
            "mode": "absolute",
            "steps": [
              {
                "color": "semi-dark-blue",
                "value": null
              }
            ]
          },
          "unit": "short"
        },
        "overrides": []
      },
      "gridPos": {
        "h": 5,
        "w": 5,
        "x": 0,
        "y": 0
      },
      "id": 9,
      "options": {
        "colorMode": "value",
        "graphMode": "none",
        "justifyMode": "center",
        "orientation": "auto",
        "reduceOptions": {
          "calcs": [
            "last"
          ],
          "fields": "",
          "values": false
        },
        "text": {},
        "textMode": "auto"
      },
      "pluginVersion": "7.5.5",
      "targets": [
        {
          "expr": "count(up{instance=~\".*Prod-Examo-API-Autoscale\",job=\"EC2_Monitor_Prod\"})",
          "interval": "",
          "legendFormat": "API",
          "refId": "A"
        },
        {
          "expr": "count(up{instance=~\".*Prod-Examo-BE-Autoscale\",job=\"EC2_Monitor_Prod\"})",
          "interval": "",
          "legendFormat": "BE",
          "refId": "B"
        },
        {
          "expr": "count(up{instance=~\".*Prod-Examo-Worker-Autoscale\",job=\"EC2_Monitor_Prod\"})",
          "interval": "",
          "legendFormat": "Worker",
          "refId": "C"
        }
      ],
      "timeFrom": null,
      "timeShift": null,
      "title": "No. of Hosts (current)",
      "type": "stat"
    },
    {
      "aliasColors": {
        "API": "green",
        "BE": "yellow",
        "Worker": "light-blue"
      },
      "bars": false,
      "dashLength": 10,
      "dashes": false,
      "datasource": null,
      "decimals": 0,
      "description": "Spikes mean deployments happened",
      "fieldConfig": {
        "defaults": {},
        "overrides": []
      },
      "fill": 10,
      "fillGradient": 5,
      "gridPos": {
        "h": 5,
        "w": 18,
        "x": 5,
        "y": 0
      },
      "hiddenSeries": false,
      "id": 10,
      "legend": {
        "alignAsTable": false,
        "avg": false,
        "current": true,
        "hideEmpty": true,
        "hideZero": true,
        "max": true,
        "min": true,
        "rightSide": false,
        "show": true,
        "total": false,
        "values": true
      },
      "lines": true,
      "linewidth": 2,
      "nullPointMode": "null",
      "options": {
        "alertThreshold": true
      },
      "percentage": false,
      "pluginVersion": "7.5.5",
      "pointradius": 2,
      "points": false,
      "renderer": "flot",
      "seriesOverrides": [],
      "spaceLength": 10,
      "stack": false,
      "steppedLine": false,
      "targets": [
        {
          "expr": "count(up{instance=~\".*Prod-Examo-API-Autoscale\",job=\"EC2_Monitor_Prod\"})",
          "interval": "",
          "legendFormat": "API",
          "refId": "A"
        },
        {
          "expr": "count(up{instance=~\".*Prod-Examo-BE-Autoscale\",job=\"EC2_Monitor_Prod\"})",
          "interval": "",
          "legendFormat": "BE",
          "refId": "B"
        },
        {
          "expr": "count(up{instance=~\".*Prod-Examo-Worker-Autoscale\",job=\"EC2_Monitor_Prod\"})",
          "interval": "",
          "legendFormat": "Worker",
          "refId": "C"
        }
      ],
      "thresholds": [],
      "timeFrom": "7d",
      "timeRegions": [],
      "timeShift": null,
      "title": "Count of Hosts (historical)",
      "tooltip": {
        "shared": true,
        "sort": 2,
        "value_type": "individual"
      },
      "type": "graph",
      "xaxis": {
        "buckets": null,
        "mode": "time",
        "name": null,
        "show": true,
        "values": []
      },
      "yaxes": [
        {
          "$$hashKey": "object:135",
          "decimals": 0,
          "format": "short",
          "label": "No of Hosts",
          "logBase": 1,
          "max": null,
          "min": null,
          "show": true
        },
        {
          "$$hashKey": "object:136",
          "decimals": 0,
          "format": "short",
          "label": "",
          "logBase": 1,
          "max": null,
          "min": null,
          "show": false
        }
      ],
      "yaxis": {
        "align": false,
        "alignLevel": null
      }
    },
    {
      "aliasColors": {
        "10.100.10.135": "semi-dark-blue",
        "10.100.10.136": "light-green",
        "10.100.10.136;Prod-Examo-API-Autoscale": "dark-blue",
        "10.100.10.58;Prod-Examo-API-Autoscale": "dark-purple",
        "10.100.20.105": "semi-dark-blue",
        "10.100.20.63": "dark-blue",
        "10.100.20.63;Prod-Examo-API-Autoscale": "dark-green",
        "10.100.20.97": "dark-purple",
        "Average CPU": "super-light-yellow"
      },
      "bars": false,
      "dashLength": 10,
      "dashes": false,
      "datasource": "Prometheus",
      "decimals": 2,
      "fieldConfig": {
        "defaults": {},
        "overrides": []
      },
      "fill": 1,
      "fillGradient": 0,
      "gridPos": {
        "h": 7,
        "w": 13,
        "x": 0,
        "y": 5
      },
      "hiddenSeries": false,
      "id": 2,
      "legend": {
        "alignAsTable": true,
        "avg": false,
        "current": true,
        "max": true,
        "min": true,
        "rightSide": true,
        "show": true,
        "total": false,
        "values": true
      },
      "lines": true,
      "linewidth": 1,
      "nullPointMode": "null",
      "options": {
        "alertThreshold": true
      },
      "percentage": false,
      "pluginVersion": "7.5.5",
      "pointradius": 2,
      "points": false,
      "renderer": "flot",
      "seriesOverrides": [],
      "spaceLength": 10,
      "stack": false,
      "steppedLine": true,
      "targets": [
        {
          "expr": "label_replace(100 - (avg by(instance) (irate(node_cpu_seconds_total{mode=\"idle\",job=\"EC2_Monitor_Prod\",instance=~\".*Prod-Examo-API-Autoscale\"}[5m])) * 100), \"ipaddr\", \"$1\", \"instance\", \"(.*);.*\")",
          "format": "time_series",
          "hide": false,
          "instant": false,
          "interval": "",
          "intervalFactor": 1,
          "legendFormat": "{{ipaddr}}",
          "refId": "A"
        },
        {
          "expr": "sum(100 - (avg by(instance) (irate(node_cpu_seconds_total{mode=\"idle\",job=\"EC2_Monitor_Prod\",instance=~\".*Prod-Examo-API-Autoscale\"}[5m])) * 100)) / count(up{instance=~\".*Prod-Examo-API-Autoscale\",job=\"EC2_Monitor_Prod\"})",
          "format": "time_series",
          "hide": false,
          "instant": false,
          "interval": "",
          "intervalFactor": 10,
          "legendFormat": "Average CPU",
          "refId": "C"
        }
      ],
      "thresholds": [
        {
          "$$hashKey": "object:138",
          "colorMode": "critical",
          "fill": false,
          "line": true,
          "op": "gt",
          "value": 80,
          "yaxis": "left"
        }
      ],
      "timeFrom": null,
      "timeRegions": [],
      "timeShift": null,
      "title": "CPU API Hosts",
      "tooltip": {
        "shared": true,
        "sort": 2,
        "value_type": "individual"
      },
      "type": "graph",
      "xaxis": {
        "buckets": null,
        "mode": "time",
        "name": null,
        "show": true,
        "values": []
      },
      "yaxes": [
        {
          "$$hashKey": "object:58",
          "decimals": null,
          "format": "percent",
          "label": null,
          "logBase": 1,
          "max": "100",
          "min": "0",
          "show": true
        },
        {
          "$$hashKey": "object:59",
          "format": "short",
          "label": null,
          "logBase": 1,
          "max": null,
          "min": null,
          "show": true
        }
      ],
      "yaxis": {
        "align": false,
        "alignLevel": null
      }
    },
    {
      "aliasColors": {
        "10.100.20.70": "semi-dark-blue",
        "10.100.20.70;Prod-Examo-BE-Autoscale": "blue",
        "Average CPU": "super-light-yellow"
      },
      "bars": false,
      "dashLength": 10,
      "dashes": false,
      "datasource": "Prometheus",
      "decimals": 2,
      "fieldConfig": {
        "defaults": {},
        "overrides": []
      },
      "fill": 1,
      "fillGradient": 0,
      "gridPos": {
        "h": 7,
        "w": 5,
        "x": 13,
        "y": 5
      },
      "hiddenSeries": false,
      "id": 3,
      "legend": {
        "alignAsTable": false,
        "avg": false,
        "current": true,
        "max": true,
        "min": true,
        "rightSide": false,
        "show": true,
        "total": false,
        "values": true
      },
      "lines": true,
      "linewidth": 1,
      "nullPointMode": "null",
      "options": {
        "alertThreshold": true
      },
      "percentage": false,
      "pluginVersion": "7.5.5",
      "pointradius": 2,
      "points": false,
      "renderer": "flot",
      "seriesOverrides": [],
      "spaceLength": 10,
      "stack": false,
      "steppedLine": true,
      "targets": [
        {
          "expr": "label_replace(100 - (avg by(instance) (irate(node_cpu_seconds_total{mode=\"idle\",job=\"EC2_Monitor_Prod\",instance=~\".*Prod-Examo-BE-Autoscale\"}[5m])) * 100), \"ipaddr\", \"$1\", \"instance\", \"(.*);.*\")",
          "format": "time_series",
          "hide": false,
          "instant": false,
          "interval": "",
          "legendFormat": "{{ipaddr}}",
          "refId": "A"
        },
        {
          "expr": "sum(100 - (avg by(instance) (irate(node_cpu_seconds_total{mode=\"idle\",job=\"EC2_Monitor_Prod\",instance=~\".*Prod-Examo-BE-Autoscale\"}[$__range])) * 100)) / count(up{instance=~\".*Prod-Examo-BE-Autoscale\",job=\"EC2_Monitor_Prod\"})",
          "format": "time_series",
          "instant": false,
          "interval": "",
          "intervalFactor": 10,
          "legendFormat": "Average CPU",
          "refId": "B"
        }
      ],
      "thresholds": [
        {
          "$$hashKey": "object:138",
          "colorMode": "critical",
          "fill": false,
          "line": true,
          "op": "gt",
          "value": 80,
          "yaxis": "left"
        }
      ],
      "timeFrom": null,
      "timeRegions": [],
      "timeShift": null,
      "title": "CPU BE Hosts",
      "tooltip": {
        "shared": true,
        "sort": 0,
        "value_type": "individual"
      },
      "type": "graph",
      "xaxis": {
        "buckets": null,
        "mode": "time",
        "name": null,
        "show": true,
        "values": []
      },
      "yaxes": [
        {
          "$$hashKey": "object:58",
          "format": "percent",
          "label": null,
          "logBase": 1,
          "max": "100",
          "min": "0",
          "show": true
        },
        {
          "$$hashKey": "object:59",
          "format": "short",
          "label": null,
          "logBase": 1,
          "max": null,
          "min": null,
          "show": true
        }
      ],
      "yaxis": {
        "align": false,
        "alignLevel": null
      }
    },
    {
      "aliasColors": {
        "10.100.10.73;Prod-Examo-Worker-Autoscale": "blue",
        "Average CPU": "super-light-yellow"
      },
      "bars": false,
      "dashLength": 10,
      "dashes": false,
      "datasource": "Prometheus",
      "decimals": 2,
      "fieldConfig": {
        "defaults": {},
        "overrides": []
      },
      "fill": 1,
      "fillGradient": 0,
      "gridPos": {
        "h": 7,
        "w": 5,
        "x": 18,
        "y": 5
      },
      "hiddenSeries": false,
      "id": 4,
      "legend": {
        "avg": false,
        "current": true,
        "max": true,
        "min": true,
        "show": true,
        "total": false,
        "values": true
      },
      "lines": true,
      "linewidth": 1,
      "nullPointMode": "null",
      "options": {
        "alertThreshold": true
      },
      "percentage": false,
      "pluginVersion": "7.5.5",
      "pointradius": 2,
      "points": false,
      "renderer": "flot",
      "seriesOverrides": [],
      "spaceLength": 10,
      "stack": false,
      "steppedLine": true,
      "targets": [
        {
          "expr": "label_replace(100 - (avg by(instance) (irate(node_cpu_seconds_total{mode=\"idle\",job=\"EC2_Monitor_Prod\",instance=~\".*Prod-Examo-Worker-Autoscale\"}[5m])) * 100), \"ipaddr\", \"$1\", \"instance\", \"(.*);.*\")",
          "format": "time_series",
          "hide": false,
          "instant": false,
          "interval": "",
          "legendFormat": "{{ipaddr}}",
          "refId": "A"
        },
        {
          "expr": "sum(100 - (avg by(instance) (irate(node_cpu_seconds_total{mode=\"idle\",job=\"EC2_Monitor_Prod\",instance=~\".*Prod-Examo-Worker-Autoscale\"}[$__range])) * 100)) / count(up{instance=~\".*Prod-Examo-Worker-Autoscale\",job=\"EC2_Monitor_Prod\"})",
          "format": "time_series",
          "instant": false,
          "interval": "",
          "intervalFactor": 10,
          "legendFormat": "Average CPU",
          "refId": "B"
        }
      ],
      "thresholds": [
        {
          "$$hashKey": "object:138",
          "colorMode": "critical",
          "fill": false,
          "line": true,
          "op": "gt",
          "value": 80,
          "yaxis": "left"
        }
      ],
      "timeFrom": null,
      "timeRegions": [],
      "timeShift": null,
      "title": "CPU Worker Hosts",
      "tooltip": {
        "shared": true,
        "sort": 0,
        "value_type": "individual"
      },
      "type": "graph",
      "xaxis": {
        "buckets": null,
        "mode": "time",
        "name": null,
        "show": true,
        "values": []
      },
      "yaxes": [
        {
          "$$hashKey": "object:58",
          "format": "percent",
          "label": null,
          "logBase": 1,
          "max": "100",
          "min": "0",
          "show": true
        },
        {
          "$$hashKey": "object:59",
          "format": "short",
          "label": null,
          "logBase": 1,
          "max": null,
          "min": null,
          "show": true
        }
      ],
      "yaxis": {
        "align": false,
        "alignLevel": null
      }
    },
    {
      "aliasColors": {
        "10.100.10.135": "dark-green",
        "10.100.10.136": "light-green",
        "10.100.10.136;Prod-Examo-API-Autoscale": "dark-blue",
        "10.100.10.49": "dark-blue",
        "10.100.10.58;Prod-Examo-API-Autoscale": "dark-purple",
        "10.100.10.77": "dark-red",
        "10.100.20.105": "semi-dark-blue",
        "10.100.20.63": "dark-blue",
        "10.100.20.63;Prod-Examo-API-Autoscale": "dark-green",
        "10.100.20.97": "semi-dark-blue",
        "Average CPU": "super-light-yellow",
        "Average Memory": "super-light-yellow"
      },
      "bars": false,
      "dashLength": 10,
      "dashes": false,
      "datasource": "Prometheus",
      "decimals": 2,
      "fieldConfig": {
        "defaults": {},
        "overrides": []
      },
      "fill": 0,
      "fillGradient": 0,
      "gridPos": {
        "h": 7,
        "w": 13,
        "x": 0,
        "y": 12
      },
      "hiddenSeries": false,
      "id": 5,
      "legend": {
        "alignAsTable": true,
        "avg": false,
        "current": true,
        "max": true,
        "min": true,
        "rightSide": true,
        "show": true,
        "total": false,
        "values": true
      },
      "lines": true,
      "linewidth": 1,
      "nullPointMode": "null",
      "options": {
        "alertThreshold": true
      },
      "percentage": false,
      "pluginVersion": "7.5.5",
      "pointradius": 2,
      "points": false,
      "renderer": "flot",
      "seriesOverrides": [],
      "spaceLength": 10,
      "stack": false,
      "steppedLine": false,
      "targets": [
        {
          "expr": "label_replace(100 - ((node_memory_MemAvailable_bytes{job=\"$job\",instance=~\".*Prod-Examo-API-Autoscale\"} * 100) / node_memory_MemTotal_bytes{job=\"$job\",instance=~\".*Prod-Examo-API-Autoscale\"}), \"ipaddr\", \"$1\", \"instance\", \"(.*);.*\")",
          "interval": "",
          "legendFormat": "{{ipaddr}}",
          "refId": "D"
        },
        {
          "expr": "sum(100 - ((node_memory_MemAvailable_bytes{job=\"$job\",instance=~\".*Prod-Examo-API-Autoscale\"} * 100) / node_memory_MemTotal_bytes{job=\"$job\",instance=~\".*Prod-Examo-API-Autoscale\"})) /  count(up{instance=~\".*Prod-Examo-API-Autoscale\",job=\"EC2_Monitor_Prod\"})",
          "interval": "",
          "intervalFactor": 10,
          "legendFormat": "Average Memory",
          "refId": "B"
        }
      ],
      "thresholds": [
        {
          "$$hashKey": "object:138",
          "colorMode": "critical",
          "fill": false,
          "line": true,
          "op": "gt",
          "value": 80,
          "yaxis": "left"
        }
      ],
      "timeFrom": null,
      "timeRegions": [],
      "timeShift": null,
      "title": "Memory API Hosts",
      "tooltip": {
        "shared": true,
        "sort": 2,
        "value_type": "individual"
      },
      "type": "graph",
      "xaxis": {
        "buckets": null,
        "mode": "time",
        "name": null,
        "show": true,
        "values": []
      },
      "yaxes": [
        {
          "$$hashKey": "object:58",
          "decimals": null,
          "format": "percent",
          "label": null,
          "logBase": 1,
          "max": "100",
          "min": "0",
          "show": true
        },
        {
          "$$hashKey": "object:59",
          "format": "short",
          "label": null,
          "logBase": 1,
          "max": null,
          "min": null,
          "show": true
        }
      ],
      "yaxis": {
        "align": false,
        "alignLevel": null
      }
    },
    {
      "aliasColors": {
        "10.100.10.135": "dark-green",
        "10.100.10.136": "light-green",
        "10.100.10.136;Prod-Examo-API-Autoscale": "dark-blue",
        "10.100.10.49": "dark-blue",
        "10.100.10.58;Prod-Examo-API-Autoscale": "dark-purple",
        "10.100.10.77": "dark-red",
        "10.100.20.105": "semi-dark-blue",
        "10.100.20.63": "dark-blue",
        "10.100.20.63;Prod-Examo-API-Autoscale": "dark-green",
        "10.100.20.97": "semi-dark-blue",
        "Average CPU": "super-light-yellow",
        "Average Memory": "super-light-yellow"
      },
      "bars": false,
      "dashLength": 10,
      "dashes": false,
      "datasource": "Prometheus",
      "decimals": 2,
      "fieldConfig": {
        "defaults": {},
        "overrides": []
      },
      "fill": 0,
      "fillGradient": 0,
      "gridPos": {
        "h": 7,
        "w": 5,
        "x": 13,
        "y": 12
      },
      "hiddenSeries": false,
      "id": 6,
      "legend": {
        "alignAsTable": true,
        "avg": false,
        "current": true,
        "max": true,
        "min": true,
        "rightSide": false,
        "show": true,
        "total": false,
        "values": true
      },
      "lines": true,
      "linewidth": 1,
      "nullPointMode": "null",
      "options": {
        "alertThreshold": true
      },
      "percentage": false,
      "pluginVersion": "7.5.5",
      "pointradius": 2,
      "points": false,
      "renderer": "flot",
      "seriesOverrides": [],
      "spaceLength": 10,
      "stack": false,
      "steppedLine": false,
      "targets": [
        {
          "expr": "label_replace(100 - ((node_memory_MemAvailable_bytes{job=\"$job\",instance=~\".*Prod-Examo-BE-Autoscale\"} * 100) / node_memory_MemTotal_bytes{job=\"$job\",instance=~\".*Prod-Examo-BE-Autoscale\"}), \"ipaddr\", \"$1\", \"instance\", \"(.*);.*\")",
          "interval": "",
          "legendFormat": "{{ipaddr}}",
          "refId": "D"
        },
        {
          "expr": "sum(100 - ((node_memory_MemAvailable_bytes{job=\"$job\",instance=~\".*Prod-Examo-BE-Autoscale\"} * 100) / node_memory_MemTotal_bytes{job=\"$job\",instance=~\".*Prod-Examo-BE-Autoscale\"})) /  count(up{instance=~\".*Prod-Examo-BE-Autoscale\",job=\"EC2_Monitor_Prod\"})",
          "hide": false,
          "interval": "",
          "intervalFactor": 10,
          "legendFormat": "Average Memory",
          "refId": "B"
        }
      ],
      "thresholds": [
        {
          "$$hashKey": "object:138",
          "colorMode": "critical",
          "fill": false,
          "line": true,
          "op": "gt",
          "value": 80,
          "yaxis": "left"
        }
      ],
      "timeFrom": null,
      "timeRegions": [],
      "timeShift": null,
      "title": "Memory BE Host",
      "tooltip": {
        "shared": true,
        "sort": 0,
        "value_type": "individual"
      },
      "type": "graph",
      "xaxis": {
        "buckets": null,
        "mode": "time",
        "name": null,
        "show": true,
        "values": []
      },
      "yaxes": [
        {
          "$$hashKey": "object:58",
          "decimals": null,
          "format": "percent",
          "label": null,
          "logBase": 1,
          "max": "100",
          "min": "0",
          "show": true
        },
        {
          "$$hashKey": "object:59",
          "format": "short",
          "label": null,
          "logBase": 1,
          "max": null,
          "min": null,
          "show": true
        }
      ],
      "yaxis": {
        "align": false,
        "alignLevel": null
      }
    },
    {
      "aliasColors": {
        "10.100.10.135": "dark-green",
        "10.100.10.136": "light-green",
        "10.100.10.136;Prod-Examo-API-Autoscale": "dark-blue",
        "10.100.10.49": "dark-blue",
        "10.100.10.58;Prod-Examo-API-Autoscale": "dark-purple",
        "10.100.10.77": "dark-red",
        "10.100.20.105": "semi-dark-blue",
        "10.100.20.63": "dark-blue",
        "10.100.20.63;Prod-Examo-API-Autoscale": "dark-green",
        "10.100.20.97": "semi-dark-blue",
        "Average CPU": "super-light-yellow",
        "Average Memory": "super-light-yellow"
      },
      "bars": false,
      "dashLength": 10,
      "dashes": false,
      "datasource": "Prometheus",
      "decimals": 2,
      "fieldConfig": {
        "defaults": {},
        "overrides": []
      },
      "fill": 0,
      "fillGradient": 0,
      "gridPos": {
        "h": 7,
        "w": 5,
        "x": 18,
        "y": 12
      },
      "hiddenSeries": false,
      "id": 7,
      "legend": {
        "alignAsTable": true,
        "avg": false,
        "current": true,
        "max": true,
        "min": true,
        "rightSide": false,
        "show": true,
        "total": false,
        "values": true
      },
      "lines": true,
      "linewidth": 1,
      "nullPointMode": "null",
      "options": {
        "alertThreshold": true
      },
      "percentage": false,
      "pluginVersion": "7.5.5",
      "pointradius": 2,
      "points": false,
      "renderer": "flot",
      "seriesOverrides": [],
      "spaceLength": 10,
      "stack": false,
      "steppedLine": false,
      "targets": [
        {
          "expr": "label_replace(100 - ((node_memory_MemAvailable_bytes{job=\"$job\",instance=~\".*Prod-Examo-Worker-Autoscale\"} * 100) / node_memory_MemTotal_bytes{job=\"$job\",instance=~\".*Prod-Examo-Worker-Autoscale\"}), \"ipaddr\", \"$1\", \"instance\", \"(.*);.*\")",
          "interval": "",
          "legendFormat": "{{ipaddr}}",
          "refId": "D"
        },
        {
          "expr": "sum(100 - ((node_memory_MemAvailable_bytes{job=\"$job\",instance=~\".*Prod-Examo-Worker-Autoscale\"} * 100) / node_memory_MemTotal_bytes{job=\"$job\",instance=~\".*Prod-Examo-Worker-Autoscale\"})) /  count(up{instance=~\".*Prod-Examo-Worker-Autoscale\",job=\"EC2_Monitor_Prod\"})",
          "hide": false,
          "interval": "",
          "intervalFactor": 10,
          "legendFormat": "Average Memory",
          "refId": "B"
        }
      ],
      "thresholds": [
        {
          "$$hashKey": "object:138",
          "colorMode": "critical",
          "fill": false,
          "line": true,
          "op": "gt",
          "value": 80,
          "yaxis": "left"
        }
      ],
      "timeFrom": null,
      "timeRegions": [],
      "timeShift": null,
      "title": "Memory Worker Host",
      "tooltip": {
        "shared": true,
        "sort": 0,
        "value_type": "individual"
      },
      "type": "graph",
      "xaxis": {
        "buckets": null,
        "mode": "time",
        "name": null,
        "show": true,
        "values": []
      },
      "yaxes": [
        {
          "$$hashKey": "object:58",
          "decimals": null,
          "format": "percent",
          "label": null,
          "logBase": 1,
          "max": "100",
          "min": "0",
          "show": true
        },
        {
          "$$hashKey": "object:59",
          "format": "short",
          "label": null,
          "logBase": 1,
          "max": null,
          "min": null,
          "show": true
        }
      ],
      "yaxis": {
        "align": false,
        "alignLevel": null
      }
    },
    {
      "aliasColors": {
        "10.100.10.135": "semi-dark-blue",
        "10.100.10.136": "light-green",
        "10.100.10.136;Prod-Examo-API-Autoscale": "dark-blue",
        "10.100.10.58;Prod-Examo-API-Autoscale": "dark-purple",
        "10.100.110.102": "super-light-orange",
        "10.100.20.105": "semi-dark-blue",
        "10.100.20.63": "dark-blue",
        "10.100.20.63;Prod-Examo-API-Autoscale": "dark-green",
        "10.100.20.97": "dark-purple",
        "Average CPU": "super-light-yellow"
      },
      "bars": false,
      "dashLength": 10,
      "dashes": false,
      "datasource": "Prometheus",
      "decimals": 2,
      "fieldConfig": {
        "defaults": {},
        "overrides": []
      },
      "fill": 1,
      "fillGradient": 0,
      "gridPos": {
        "h": 6,
        "w": 8,
        "x": 0,
        "y": 19
      },
      "hiddenSeries": false,
      "id": 11,
      "legend": {
        "alignAsTable": false,
        "avg": false,
        "current": true,
        "max": true,
        "min": true,
        "rightSide": false,
        "show": true,
        "total": false,
        "values": true
      },
      "lines": true,
      "linewidth": 1,
      "nullPointMode": "null",
      "options": {
        "alertThreshold": true
      },
      "percentage": false,
      "pluginVersion": "7.5.5",
      "pointradius": 2,
      "points": false,
      "renderer": "flot",
      "seriesOverrides": [],
      "spaceLength": 10,
      "stack": false,
      "steppedLine": true,
      "targets": [
        {
          "expr": "label_replace(100 - (avg by(instance) (irate(node_cpu_seconds_total{mode=\"idle\",job=\"EC2_Monitor_sentry\",instance=~\".*examo-sandbox-sentry\"}[5m])) * 100), \"ipaddr\", \"$1\", \"instance\", \"(.*);.*\")",
          "format": "time_series",
          "hide": false,
          "instant": false,
          "interval": "",
          "intervalFactor": 1,
          "legendFormat": "{{ipaddr}}",
          "refId": "A"
        },
        {
          "expr": "sum(100 - (avg by(instance) (irate(node_cpu_seconds_total{mode=\"idle\",job=\"EC2_Monitor_sentry\",instance=~\".*examo-sandbox-sentry\"}[5m])) * 100)) / count(up{instance=~\".*examo-sandbox-sentry\",job=\"EC2_Monitor_sentry\"})",
          "format": "time_series",
          "hide": true,
          "instant": false,
          "interval": "",
          "intervalFactor": 10,
          "legendFormat": "Average CPU",
          "refId": "C"
        }
      ],
      "thresholds": [
        {
          "$$hashKey": "object:138",
          "colorMode": "critical",
          "fill": false,
          "line": true,
          "op": "gt",
          "value": 80,
          "yaxis": "left"
        }
      ],
      "timeFrom": null,
      "timeRegions": [],
      "timeShift": null,
      "title": "CPU Sentry Host",
      "tooltip": {
        "shared": true,
        "sort": 0,
        "value_type": "individual"
      },
      "type": "graph",
      "xaxis": {
        "buckets": null,
        "mode": "time",
        "name": null,
        "show": true,
        "values": []
      },
      "yaxes": [
        {
          "$$hashKey": "object:58",
          "decimals": null,
          "format": "percent",
          "label": null,
          "logBase": 1,
          "max": "100",
          "min": "0",
          "show": true
        },
        {
          "$$hashKey": "object:59",
          "format": "short",
          "label": null,
          "logBase": 1,
          "max": null,
          "min": null,
          "show": true
        }
      ],
      "yaxis": {
        "align": false,
        "alignLevel": null
      }
    },
    {
      "datasource": "Prometheus",
      "fieldConfig": {
        "defaults": {
          "mappings": [],
          "thresholds": {
            "mode": "percentage",
            "steps": [
              {
                "color": "green",
                "value": null
              },
              {
                "color": "red",
                "value": 80
              }
            ]
          },
          "unit": "percent"
        },
        "overrides": []
      },
      "gridPos": {
        "h": 6,
        "w": 6,
        "x": 8,
        "y": 19
      },
      "id": 13,
      "options": {
        "reduceOptions": {
          "calcs": [
            "last"
          ],
          "fields": "",
          "values": false
        },
        "showThresholdLabels": false,
        "showThresholdMarkers": true,
        "text": {}
      },
      "pluginVersion": "7.5.5",
      "targets": [
        {
          "expr": "label_replace(100 - (avg by(instance) (irate(node_cpu_seconds_total{mode=\"idle\",job=\"EC2_Monitor_sentry\",instance=~\".*examo-sandbox-sentry\"}[5m])) * 100), \"ipaddr\", \"$1\", \"instance\", \"(.*);.*\")",
          "format": "time_series",
          "hide": false,
          "instant": false,
          "interval": "",
          "intervalFactor": 1,
          "legendFormat": "CPU",
          "refId": "A"
        },
        {
          "expr": "label_replace(100 - ((node_memory_MemAvailable_bytes{job=\"EC2_Monitor_sentry\",instance=~\".*examo-sandbox-sentry\"} * 100) / node_memory_MemTotal_bytes{job=\"EC2_Monitor_sentry\",instance=~\".*examo-sandbox-sentry\"}), \"ipaddr\", \"$1\", \"instance\", \"(.*);.*\")",
          "interval": "",
          "legendFormat": "Memory",
          "refId": "B"
        }
      ],
      "timeFrom": null,
      "timeShift": null,
      "title": "Sentry Host",
      "type": "gauge"
    },
    {
      "aliasColors": {
        "10.100.10.135": "dark-green",
        "10.100.10.136": "light-green",
        "10.100.10.136;Prod-Examo-API-Autoscale": "dark-blue",
        "10.100.10.49": "dark-blue",
        "10.100.10.58;Prod-Examo-API-Autoscale": "dark-purple",
        "10.100.10.77": "dark-red",
        "10.100.110.102": "super-light-orange",
        "10.100.20.105": "semi-dark-blue",
        "10.100.20.63": "dark-blue",
        "10.100.20.63;Prod-Examo-API-Autoscale": "dark-green",
        "10.100.20.97": "semi-dark-blue",
        "Average CPU": "super-light-yellow",
        "Average Memory": "super-light-yellow"
      },
      "bars": false,
      "dashLength": 10,
      "dashes": false,
      "datasource": "Prometheus",
      "decimals": 2,
      "fieldConfig": {
        "defaults": {},
        "overrides": []
      },
      "fill": 0,
      "fillGradient": 0,
      "gridPos": {
        "h": 6,
        "w": 9,
        "x": 14,
        "y": 19
      },
      "hiddenSeries": false,
      "id": 12,
      "legend": {
        "alignAsTable": false,
        "avg": false,
        "current": true,
        "max": true,
        "min": true,
        "rightSide": false,
        "show": true,
        "total": false,
        "values": true
      },
      "lines": true,
      "linewidth": 1,
      "nullPointMode": "connected",
      "options": {
        "alertThreshold": true
      },
      "percentage": false,
      "pluginVersion": "7.5.5",
      "pointradius": 2,
      "points": false,
      "renderer": "flot",
      "seriesOverrides": [],
      "spaceLength": 10,
      "stack": false,
      "steppedLine": false,
      "targets": [
        {
          "expr": "label_replace(100 - ((node_memory_MemAvailable_bytes{job=\"EC2_Monitor_sentry\",instance=~\".*examo-sandbox-sentry\"} * 100) / node_memory_MemTotal_bytes{job=\"EC2_Monitor_sentry\",instance=~\".*examo-sandbox-sentry\"}), \"ipaddr\", \"$1\", \"instance\", \"(.*);.*\")",
          "interval": "",
          "legendFormat": "{{ipaddr}}",
          "refId": "D"
        }
      ],
      "thresholds": [
        {
          "$$hashKey": "object:138",
          "colorMode": "critical",
          "fill": false,
          "line": true,
          "op": "gt",
          "value": 80,
          "yaxis": "left"
        }
      ],
      "timeFrom": null,
      "timeRegions": [],
      "timeShift": null,
      "title": "Memory Sentry Host",
      "tooltip": {
        "shared": true,
        "sort": 0,
        "value_type": "individual"
      },
      "type": "graph",
      "xaxis": {
        "buckets": null,
        "mode": "time",
        "name": null,
        "show": true,
        "values": []
      },
      "yaxes": [
        {
          "$$hashKey": "object:58",
          "decimals": null,
          "format": "percent",
          "label": null,
          "logBase": 1,
          "max": "100",
          "min": "0",
          "show": true
        },
        {
          "$$hashKey": "object:59",
          "format": "short",
          "label": null,
          "logBase": 1,
          "max": null,
          "min": null,
          "show": true
        }
      ],
      "yaxis": {
        "align": false,
        "alignLevel": null
      }
    }
  ],
  "refresh": "10s",
  "schemaVersion": 27,
  "style": "dark",
  "tags": [],
  "templating": {
    "list": [
      {
        "current": {
          "selected": false,
          "text": "Prometheus",
          "value": "Prometheus"
        },
        "description": null,
        "error": null,
        "hide": 2,
        "includeAll": false,
        "label": "datasource",
        "multi": false,
        "name": "DS_PROMETHEUS",
        "options": [],
        "query": "prometheus",
        "refresh": 1,
        "regex": "",
        "skipUrlSync": false,
        "type": "datasource"
      },
      {
        "allValue": null,
        "current": {
          "selected": false,
          "text": "EC2_Monitor",
          "value": "EC2_Monitor"
        },
        "datasource": "$DS_PROMETHEUS",
        "definition": "label_values(node_uname_info, job)",
        "description": null,
        "error": null,
        "hide": 2,
        "includeAll": false,
        "label": "Job",
        "multi": false,
        "name": "job",
        "options": [],
        "query": {
          "query": "label_values(node_uname_info, job)",
          "refId": "Prometheus-job-Variable-Query"
        },
        "refresh": 1,
        "regex": "",
        "skipUrlSync": false,
        "sort": 0,
        "tagValuesQuery": "",
        "tags": [],
        "tagsQuery": "",
        "type": "query",
        "useTags": false
      },
      {
        "allValue": null,
        "current": {
          "selected": false,
          "text": "10.100.1.57;VPN-Ldap-Server",
          "value": "10.100.1.57;VPN-Ldap-Server"
        },
        "datasource": "$DS_PROMETHEUS",
        "definition": "label_values(node_uname_info{job=\"$job\"}, instance)",
        "description": null,
        "error": null,
        "hide": 2,
        "includeAll": false,
        "label": "Host:",
        "multi": true,
        "name": "node",
        "options": [],
        "query": {
          "query": "label_values(node_uname_info{job=\"$job\"}, instance)",
          "refId": "Prometheus-node-Variable-Query"
        },
        "refresh": 2,
        "regex": "",
        "skipUrlSync": false,
        "sort": 1,
        "tagValuesQuery": "",
        "tags": [],
        "tagsQuery": "",
        "type": "query",
        "useTags": false
      }
    ]
  },
  "time": {
    "from": "now-1h",
    "to": "now"
  },
  "timepicker": {
    "refresh_intervals": [
      "10s",
      "30s",
      "1m",
      "5m",
      "15m",
      "30m",
      "1h",
      "2h",
      "1d"
    ]
  },
  "timezone": "",
  "title": "SPOG 1",
  "uid": "nj2Y-l5Mk",
  "version": 46
}
